[gd_scene load_steps=20 format=2]

[ext_resource path="res://fonts/Adventurer.ttf" type="DynamicFontData" id=1]
[ext_resource path="res://objects/super_grotto/tilemaps/tileset-2_green.png" type="Texture" id=2]
[ext_resource path="res://objects/death/sprite/death.png" type="Texture" id=3]
[ext_resource path="res://scenes/cut_scene_01/cut_scenes.gd" type="Script" id=4]
[ext_resource path="res://scenes/cut_scene_01/death.gd" type="Script" id=5]
[ext_resource path="res://snds/interface-trial-124464.ogg" type="AudioStream" id=6]
[ext_resource path="res://music/victory-screen-150573.ogg" type="AudioStream" id=7]

[sub_resource type="TileSet" id=27]
0/name = "tileset-2_green.png 0"
0/texture = ExtResource( 2 )
0/tex_offset = Vector2( 0, 0 )
0/modulate = Color( 1, 1, 1, 1 )
0/region = Rect2( 16, 128, 32, 16 )
0/tile_mode = 0
0/occluder_offset = Vector2( 0, 0 )
0/navigation_offset = Vector2( 0, 0 )
0/shape_offset = Vector2( 0, 0 )
0/shape_transform = Transform2D( 1, 0, 0, 1, 0, 0 )
0/shape_one_way = false
0/shape_one_way_margin = 0.0
0/shapes = [  ]
0/z_index = 0
1/name = "tileset-2_green.png 1"
1/texture = ExtResource( 2 )
1/tex_offset = Vector2( 0, 0 )
1/modulate = Color( 1, 1, 1, 1 )
1/region = Rect2( 160, 32, 32, 32 )
1/tile_mode = 0
1/occluder_offset = Vector2( 0, 0 )
1/navigation_offset = Vector2( 0, 0 )
1/shape_offset = Vector2( 0, 0 )
1/shape_transform = Transform2D( 1, 0, 0, 1, 0, 0 )
1/shape_one_way = false
1/shape_one_way_margin = 0.0
1/shapes = [  ]
1/z_index = 0
2/name = "tileset-2_green.png 2"
2/texture = ExtResource( 2 )
2/tex_offset = Vector2( 0, 0 )
2/modulate = Color( 1, 1, 1, 1 )
2/region = Rect2( 16, 128, 32, 32 )
2/tile_mode = 0
2/occluder_offset = Vector2( 0, 0 )
2/navigation_offset = Vector2( 0, 0 )
2/shape_offset = Vector2( 0, 0 )
2/shape_transform = Transform2D( 1, 0, 0, 1, 0, 0 )
2/shape_one_way = false
2/shape_one_way_margin = 0.0
2/shapes = [  ]
2/z_index = 0

[sub_resource type="DynamicFont" id=1]
size = 32
font_data = ExtResource( 1 )

[sub_resource type="AtlasTexture" id=21]
atlas = ExtResource( 3 )
region = Rect2( 0, 0, 48, 48 )

[sub_resource type="AtlasTexture" id=22]
atlas = ExtResource( 3 )
region = Rect2( 48, 0, 48, 48 )

[sub_resource type="AtlasTexture" id=23]
atlas = ExtResource( 3 )
region = Rect2( 96, 0, 48, 48 )

[sub_resource type="AtlasTexture" id=24]
atlas = ExtResource( 3 )
region = Rect2( 0, 48, 48, 48 )

[sub_resource type="AtlasTexture" id=25]
atlas = ExtResource( 3 )
region = Rect2( 48, 48, 48, 48 )

[sub_resource type="AtlasTexture" id=26]
atlas = ExtResource( 3 )
region = Rect2( 96, 48, 48, 48 )

[sub_resource type="SpriteFrames" id=8]
animations = [ {
"frames": [ SubResource( 21 ), SubResource( 22 ), SubResource( 23 ), SubResource( 24 ), SubResource( 25 ), SubResource( 26 ) ],
"loop": true,
"name": "default",
"speed": 5.0
} ]

[sub_resource type="RectangleShape2D" id=20]

[sub_resource type="Animation" id=18]
length = 0.001
tracks/0/type = "value"
tracks/0/path = NodePath("death:position")
tracks/0/interp = 1
tracks/0/loop_wrap = true
tracks/0/imported = false
tracks/0/enabled = true
tracks/0/keys = {
"times": PoolRealArray( 0 ),
"transitions": PoolRealArray( 1 ),
"update": 0,
"values": [ Vector2( -40, 208 ) ]
}
tracks/1/type = "value"
tracks/1/path = NodePath(".:modulate")
tracks/1/interp = 1
tracks/1/loop_wrap = true
tracks/1/imported = false
tracks/1/enabled = true
tracks/1/keys = {
"times": PoolRealArray( 0 ),
"transitions": PoolRealArray( 1 ),
"update": 0,
"values": [ Color( 1, 1, 1, 1 ) ]
}
tracks/2/type = "value"
tracks/2/path = NodePath("music:volume_db")
tracks/2/interp = 1
tracks/2/loop_wrap = true
tracks/2/imported = false
tracks/2/enabled = true
tracks/2/keys = {
"times": PoolRealArray( 0 ),
"transitions": PoolRealArray( 1 ),
"update": 0,
"values": [ 0.0 ]
}

[sub_resource type="Animation" id=19]
resource_name = "default"
length = 5.0
tracks/0/type = "value"
tracks/0/path = NodePath("death:position")
tracks/0/interp = 1
tracks/0/loop_wrap = true
tracks/0/imported = false
tracks/0/enabled = true
tracks/0/keys = {
"times": PoolRealArray( 0, 2.2, 2.6, 2.7, 2.8, 2.9, 3.4, 3.9, 4.3, 4.4, 4.5, 4.6 ),
"transitions": PoolRealArray( 1, 1, 1, 1, 1, 1, 1, 1, 1, 1, 1, 1 ),
"update": 0,
"values": [ Vector2( -40, 208 ), Vector2( 272, 208 ), Vector2( 341, 356 ), Vector2( -90, 350 ), Vector2( -65, -92 ), Vector2( 84, -61 ), Vector2( 192, 207 ), Vector2( 272, 208 ), Vector2( 341, 356 ), Vector2( -90, 350 ), Vector2( -65, -92 ), Vector2( 84, -61 ) ]
}
tracks/1/type = "method"
tracks/1/path = NodePath(".")
tracks/1/interp = 1
tracks/1/loop_wrap = true
tracks/1/imported = false
tracks/1/enabled = true
tracks/1/keys = {
"times": PoolRealArray( 5 ),
"transitions": PoolRealArray( 1 ),
"values": [ {
"args": [  ],
"method": "continue"
} ]
}
tracks/2/type = "value"
tracks/2/path = NodePath(".:modulate")
tracks/2/interp = 1
tracks/2/loop_wrap = true
tracks/2/imported = false
tracks/2/enabled = true
tracks/2/keys = {
"times": PoolRealArray( 4.5, 5 ),
"transitions": PoolRealArray( 1, 1 ),
"update": 0,
"values": [ Color( 1, 1, 1, 1 ), Color( 1, 1, 1, 0 ) ]
}
tracks/3/type = "value"
tracks/3/path = NodePath("music:volume_db")
tracks/3/interp = 1
tracks/3/loop_wrap = true
tracks/3/imported = false
tracks/3/enabled = true
tracks/3/keys = {
"times": PoolRealArray( 3.3, 5 ),
"transitions": PoolRealArray( 1, 1 ),
"update": 0,
"values": [ 0.0, -80.0 ]
}

[node name="cut_scene" type="Control"]
anchor_right = 1.0
anchor_bottom = 1.0
script = ExtResource( 4 )
next_scene = "res://maps/map_13.tscn"

[node name="TileMap" type="TileMap" parent="."]
tile_set = SubResource( 27 )
cell_size = Vector2( 32, 32 )
format = 1
tile_data = PoolIntArray( 0, 1610612738, 0, 1, 1610612738, 0, 5, 1610612738, 0, 6, 1610612738, 0, 7, 1610612738, 0, 8, 1610612738, 0, 9, 1610612738, 0, 10, 1610612738, 0, 11, 1610612738, 0, 12, 1610612738, 0, 13, 1610612738, 0, 14, 1610612738, 0, 15, 1610612738, 0, 65536, 1, 0, 65537, 1, 0, 65538, 1, 0, 65539, 1, 0, 65540, 1, 0, 65541, 1, 0, 65542, 1, 0, 65543, 1, 0, 65544, 1, 0, 65545, 1, 0, 65546, 1, 0, 65547, 1, 0, 65548, 1, 0, 65549, 1, 0, 65550, 1, 0, 65551, 1, 0, 131072, 1, 0, 131073, 1, 0, 131074, 1, 0, 131075, 1, 0, 131076, 1, 0, 131077, 1, 0, 131078, 1, 0, 131079, 1, 0, 131080, 1, 0, 131081, 1, 0, 131082, 1, 0, 131083, 1, 0, 131084, 1, 0, 131085, 1, 0, 131086, 1, 0, 131087, 1, 0, 196608, 1, 0, 196609, 1, 0, 196610, 1, 0, 196611, 1, 0, 196612, 1, 0, 196613, 1, 0, 196614, 1, 0, 196615, 1, 0, 196616, 1, 0, 196617, 1, 0, 196618, 1, 0, 196619, 1, 0, 196620, 1, 0, 196621, 1, 0, 196622, 1, 0, 196623, 1, 0, 262144, 1, 0, 262145, 1, 0, 262146, 1, 0, 262147, 1, 0, 262148, 1, 0, 262149, 1, 0, 262150, 1, 0, 262151, 1, 0, 262152, 1, 0, 262153, 1, 0, 262154, 1, 0, 262155, 1, 0, 262156, 1, 0, 262157, 1, 0, 262158, 1, 0, 262159, 1, 0, 327680, 1, 0, 327681, 1, 0, 327682, 1, 0, 327683, 1, 0, 327684, 1, 0, 327685, 1, 0, 327686, 1, 0, 327687, 1, 0, 327688, 1, 0, 327689, 1, 0, 327690, 1, 0, 327691, 1, 0, 327692, 1, 0, 327693, 1, 0, 327694, 1, 0, 327695, 1, 0, 393216, 1, 0, 393217, 1, 0, 393218, 1, 0, 393219, 1, 0, 393220, 1, 0, 393221, 1, 0, 393222, 1, 0, 393223, 1, 0, 393224, 1, 0, 393225, 1, 0, 393226, 1, 0, 393227, 1, 0, 393228, 1, 0, 393229, 1, 0, 393230, 1, 0, 393231, 1, 0, 458752, 1, 0, 458753, 1, 0, 458754, 1, 0, 458755, 1, 0, 458756, 1, 0, 458757, 1, 0, 458758, 1, 0, 458759, 1, 0, 458760, 1, 0, 458761, 1, 0, 458762, 1, 0, 458763, 1, 0, 458764, 1, 0, 458765, 1, 0, 458766, 1, 0, 458767, 1, 0, 524288, 0, 0, 524289, 0, 0, 524290, 0, 0, 524291, 0, 0, 524292, 0, 0, 524293, 0, 0, 524294, 0, 0, 524295, 0, 0, 524299, 1610612736, 0, 524300, 1610612736, 0, 524301, 1610612736, 0, 524302, 1610612736, 0, 524303, 1610612736, 0 )

[node name="Label" type="Label" parent="."]
anchor_top = 0.5
anchor_right = 1.0
anchor_bottom = 0.5
margin_top = -77.0
margin_bottom = 8.0
custom_fonts/font = SubResource( 1 )
text = "Use Pits to Travel
Across The Level"
align = 1

[node name="death" type="AnimatedSprite" parent="."]
position = Vector2( -40, 208 )
scale = Vector2( 2, 2 )
frames = SubResource( 8 )
frame = 2
playing = true
script = ExtResource( 5 )

[node name="Area2D" type="Area2D" parent="death"]

[node name="CollisionShape2D" type="CollisionShape2D" parent="death/Area2D"]
shape = SubResource( 20 )

[node name="AnimationPlayer" type="AnimationPlayer" parent="."]
autoplay = "default"
anims/RESET = SubResource( 18 )
anims/default = SubResource( 19 )

[node name="sound" type="AudioStreamPlayer" parent="."]
stream = ExtResource( 6 )

[node name="music" type="AudioStreamPlayer" parent="."]
stream = ExtResource( 7 )
autoplay = true

[connection signal="body_entered" from="death/Area2D" to="death" method="_on_Area2D_body_entered"]
