[gd_scene load_steps=33 format=2]

[ext_resource path="res://fonts/Adventurer.ttf" type="DynamicFontData" id=1]
[ext_resource path="res://objects/super_grotto/enemies/spritesheet/skeleton-walk.png" type="Texture" id=2]
[ext_resource path="res://objects/light_textures/lamp_02.png" type="Texture" id=3]
[ext_resource path="res://scenes/cut_scene_01/cut_scenes.gd" type="Script" id=4]
[ext_resource path="res://objects/explosion/enemy_collect.png" type="Texture" id=5]
[ext_resource path="res://snds/interface-trial-124464.ogg" type="AudioStream" id=6]
[ext_resource path="res://music/victory-screen-150573.ogg" type="AudioStream" id=7]
[ext_resource path="res://objects/death/sprite/death_lamp.png" type="Texture" id=8]
[ext_resource path="res://objects/super_grotto/tilemaps/tilemap.tscn" type="PackedScene" id=9]

[sub_resource type="DynamicFont" id=1]
size = 32
font_data = ExtResource( 1 )

[sub_resource type="AtlasTexture" id=24]
atlas = ExtResource( 8 )
region = Rect2( 0, 0, 48, 48 )

[sub_resource type="AtlasTexture" id=25]
atlas = ExtResource( 8 )
region = Rect2( 48, 0, 48, 48 )

[sub_resource type="AtlasTexture" id=26]
atlas = ExtResource( 8 )
region = Rect2( 96, 0, 48, 48 )

[sub_resource type="AtlasTexture" id=27]
atlas = ExtResource( 8 )
region = Rect2( 0, 48, 48, 48 )

[sub_resource type="AtlasTexture" id=28]
atlas = ExtResource( 8 )
region = Rect2( 48, 48, 48, 48 )

[sub_resource type="AtlasTexture" id=29]
atlas = ExtResource( 8 )
region = Rect2( 96, 48, 48, 48 )

[sub_resource type="SpriteFrames" id=8]
animations = [ {
"frames": [ SubResource( 24 ), SubResource( 25 ), SubResource( 26 ), SubResource( 27 ), SubResource( 28 ), SubResource( 29 ) ],
"loop": true,
"name": "default",
"speed": 5.0
} ]

[sub_resource type="AtlasTexture" id=9]
atlas = ExtResource( 2 )
region = Rect2( 0, 0, 32, 32 )

[sub_resource type="AtlasTexture" id=10]
atlas = ExtResource( 2 )
region = Rect2( 32, 0, 32, 32 )

[sub_resource type="AtlasTexture" id=11]
atlas = ExtResource( 2 )
region = Rect2( 64, 0, 32, 32 )

[sub_resource type="AtlasTexture" id=12]
atlas = ExtResource( 2 )
region = Rect2( 96, 0, 32, 32 )

[sub_resource type="AtlasTexture" id=13]
atlas = ExtResource( 2 )
region = Rect2( 128, 0, 32, 32 )

[sub_resource type="AtlasTexture" id=14]
atlas = ExtResource( 2 )
region = Rect2( 160, 0, 32, 32 )

[sub_resource type="AtlasTexture" id=15]
atlas = ExtResource( 2 )
region = Rect2( 192, 0, 32, 32 )

[sub_resource type="AtlasTexture" id=16]
atlas = ExtResource( 2 )
region = Rect2( 224, 0, 32, 32 )

[sub_resource type="SpriteFrames" id=17]
animations = [ {
"frames": [ SubResource( 9 ), SubResource( 10 ), SubResource( 11 ), SubResource( 12 ), SubResource( 13 ), SubResource( 14 ), SubResource( 15 ), SubResource( 16 ) ],
"loop": true,
"name": "default",
"speed": 5.0
} ]

[sub_resource type="Animation" id=18]
length = 0.001
tracks/0/type = "value"
tracks/0/path = NodePath("skeleton:position")
tracks/0/interp = 1
tracks/0/loop_wrap = true
tracks/0/imported = false
tracks/0/enabled = true
tracks/0/keys = {
"times": PoolRealArray( 0 ),
"transitions": PoolRealArray( 1 ),
"update": 0,
"values": [ Vector2( 224, 224 ) ]
}
tracks/1/type = "value"
tracks/1/path = NodePath("death:position")
tracks/1/interp = 1
tracks/1/loop_wrap = true
tracks/1/imported = false
tracks/1/enabled = true
tracks/1/keys = {
"times": PoolRealArray( 0 ),
"transitions": PoolRealArray( 1 ),
"update": 0,
"values": [ Vector2( -40, 208 ) ]
}
tracks/2/type = "value"
tracks/2/path = NodePath("skeleton:visible")
tracks/2/interp = 1
tracks/2/loop_wrap = true
tracks/2/imported = false
tracks/2/enabled = true
tracks/2/keys = {
"times": PoolRealArray( 0 ),
"transitions": PoolRealArray( 1 ),
"update": 0,
"values": [ true ]
}
tracks/3/type = "value"
tracks/3/path = NodePath(".:modulate")
tracks/3/interp = 1
tracks/3/loop_wrap = true
tracks/3/imported = false
tracks/3/enabled = true
tracks/3/keys = {
"times": PoolRealArray( 0 ),
"transitions": PoolRealArray( 1 ),
"update": 0,
"values": [ Color( 1, 1, 1, 1 ) ]
}
tracks/4/type = "value"
tracks/4/path = NodePath("music:volume_db")
tracks/4/interp = 1
tracks/4/loop_wrap = true
tracks/4/imported = false
tracks/4/enabled = true
tracks/4/keys = {
"times": PoolRealArray( 0 ),
"transitions": PoolRealArray( 1 ),
"update": 0,
"values": [ 0.0 ]
}

[sub_resource type="Animation" id=19]
resource_name = "default"
length = 5.0
tracks/0/type = "value"
tracks/0/path = NodePath("skeleton:position")
tracks/0/interp = 1
tracks/0/loop_wrap = true
tracks/0/imported = false
tracks/0/enabled = true
tracks/0/keys = {
"times": PoolRealArray( 0, 4 ),
"transitions": PoolRealArray( 1, 1 ),
"update": 0,
"values": [ Vector2( 224, 224 ), Vector2( 416, 224 ) ]
}
tracks/1/type = "value"
tracks/1/path = NodePath("death:position")
tracks/1/interp = 1
tracks/1/loop_wrap = true
tracks/1/imported = false
tracks/1/enabled = true
tracks/1/keys = {
"times": PoolRealArray( 0, 5 ),
"transitions": PoolRealArray( 1, 1 ),
"update": 0,
"values": [ Vector2( -40, 208 ), Vector2( 560, 208 ) ]
}
tracks/2/type = "value"
tracks/2/path = NodePath("skeleton:visible")
tracks/2/interp = 1
tracks/2/loop_wrap = true
tracks/2/imported = false
tracks/2/enabled = true
tracks/2/keys = {
"times": PoolRealArray( 0, 3.3, 3.4 ),
"transitions": PoolRealArray( 1, 1, 1 ),
"update": 1,
"values": [ true, true, false ]
}
tracks/3/type = "method"
tracks/3/path = NodePath(".")
tracks/3/interp = 1
tracks/3/loop_wrap = true
tracks/3/imported = false
tracks/3/enabled = true
tracks/3/keys = {
"times": PoolRealArray( 5 ),
"transitions": PoolRealArray( 1 ),
"values": [ {
"args": [  ],
"method": "continue"
} ]
}
tracks/4/type = "value"
tracks/4/path = NodePath(".:modulate")
tracks/4/interp = 1
tracks/4/loop_wrap = true
tracks/4/imported = false
tracks/4/enabled = true
tracks/4/keys = {
"times": PoolRealArray( 4.5, 5 ),
"transitions": PoolRealArray( 1, 1 ),
"update": 0,
"values": [ Color( 1, 1, 1, 1 ), Color( 1, 1, 1, 0 ) ]
}
tracks/5/type = "method"
tracks/5/path = NodePath(".")
tracks/5/interp = 1
tracks/5/loop_wrap = true
tracks/5/imported = false
tracks/5/enabled = true
tracks/5/keys = {
"times": PoolRealArray( 3.3 ),
"transitions": PoolRealArray( 1 ),
"values": [ {
"args": [  ],
"method": "collect"
} ]
}
tracks/6/type = "value"
tracks/6/path = NodePath("music:volume_db")
tracks/6/interp = 1
tracks/6/loop_wrap = true
tracks/6/imported = false
tracks/6/enabled = true
tracks/6/keys = {
"times": PoolRealArray( 3.3, 5 ),
"transitions": PoolRealArray( 1, 1 ),
"update": 0,
"values": [ 0.0, -80.0 ]
}

[sub_resource type="AtlasTexture" id=20]
atlas = ExtResource( 5 )
region = Rect2( 0, 0, 32, 32 )

[sub_resource type="AtlasTexture" id=21]
atlas = ExtResource( 5 )
region = Rect2( 32, 0, 32, 32 )

[sub_resource type="AtlasTexture" id=22]
atlas = ExtResource( 5 )
region = Rect2( 64, 0, 32, 32 )

[sub_resource type="SpriteFrames" id=23]
animations = [ {
"frames": [ SubResource( 20 ), SubResource( 21 ), SubResource( 22 ) ],
"loop": true,
"name": "default",
"speed": 5.0
} ]

[node name="cut_scene" type="Control"]
anchor_right = 1.0
anchor_bottom = 1.0
rect_pivot_offset = Vector2( -705, -47 )
script = ExtResource( 4 )
next_scene = "res://maps/map_07.tscn"

[node name="TileMap2" parent="." instance=ExtResource( 9 )]
modulate = Color( 1, 1, 1, 0.32549 )
tile_data = PoolIntArray( -1, 6, 0, -65536, 6, 0, -65535, 6, 0, -65534, 6, 0, -65533, 6, 0, -65532, 6, 0, -65531, 6, 0, -65530, 6, 0, -65529, 6, 0, -65528, 5, 0, -65527, 5, 0, -65526, 5, 0, -65525, 5, 0, -65524, 5, 0, -65523, 5, 0, -65522, 5, 0, -65521, 6, 0, -65520, 6, 0, -65519, 6, 0, -65518, 6, 0, -65517, 6, 0, -65516, 6, 0, -65515, 6, 0, -65514, 6, 0, -65513, 6, 0, -65512, 6, 0, -65511, 6, 0, -65510, 6, 0, -65509, 6, 0, -65508, 6, 0, -65507, 6, 0, -65506, 6, 0, -65505, 6, 0, -65504, 6, 0, -65503, 6, 0, -65502, 6, 0, -65501, 6, 0, -65500, 6, 0, -65499, 6, 0, -65498, 6, 0, -65497, 6, 0, -65496, 6, 0, 65535, 6, 0, 0, 6, 0, 1, 5, 0, 2, 5, 0, 3, 5, 0, 4, 5, 0, 5, 5, 0, 6, 5, 0, 7, 5, 0, 8, 5, 0, 9, 5, 0, 10, 5, 0, 11, 5, 0, 12, 5, 0, 13, 5, 0, 14, 6, 0, 15, 5, 0, 16, 5, 0, 17, 5, 0, 18, 5, 0, 19, 6, 0, 20, 6, 0, 21, 6, 0, 22, 6, 0, 23, 6, 0, 24, 6, 0, 25, 6, 0, 26, 6, 0, 27, 6, 0, 28, 6, 0, 29, 6, 0, 30, 6, 0, 31, 6, 0, 32, 6, 0, 33, 6, 0, 34, 6, 0, 35, 6, 0, 36, 6, 0, 37, 6, 0, 38, 6, 0, 39, 6, 0, 40, 6, 0, 131070, 5, 0, 131071, 5, 0, 65536, 5, 0, 65537, 5, 0, 65538, 5, 0, 65539, 5, 0, 65540, 5, 0, 65541, 5, 0, 65542, 5, 0, 65543, 5, 0, 65544, 5, 0, 65545, 5, 0, 65546, 5, 0, 65547, 5, 0, 65548, 5, 0, 65549, 5, 0, 65550, 5, 0, 65551, 5, 0, 65552, 5, 0, 65553, 5, 0, 65554, 5, 0, 65555, 5, 0, 65556, 6, 0, 65557, 5, 0, 65558, 6, 0, 65559, 5, 0, 65560, 5, 0, 65561, 5, 0, 65562, 5, 0, 65563, 5, 0, 65564, 5, 0, 65565, 5, 0, 65566, 6, 0, 65567, 6, 0, 65568, 6, 0, 65569, 6, 0, 65570, 6, 0, 65571, 6, 0, 65572, 6, 0, 65573, 6, 0, 65574, 6, 0, 65575, 6, 0, 65576, 6, 0, 196607, 6, 0, 131072, 6, 0, 131073, 5, 0, 131074, 5, 0, 131075, 5, 0, 131076, 5, 0, 131077, 5, 0, 131078, 5, 0, 131079, 5, 0, 131080, 5, 0, 131081, 5, 0, 131082, 5, 0, 131083, 5, 0, 131084, 5, 0, 131085, 5, 0, 131086, 5, 0, 131087, 5, 0, 131088, 5, 0, 131089, 5, 0, 131090, 5, 0, 131091, 5, 0, 131092, 5, 0, 131093, 5, 0, 131094, 5, 0, 131095, 5, 0, 131096, 5, 0, 131097, 5, 0, 131098, 6, 0, 131099, 5, 0, 131100, 5, 0, 131101, 6, 0, 131102, 6, 0, 131103, 6, 0, 131104, 6, 0, 131105, 6, 0, 131106, 6, 0, 131107, 6, 0, 131108, 6, 0, 131109, 6, 0, 131110, 6, 0, 131111, 6, 0, 131112, 6, 0, 262143, 6, 0, 196608, 5, 0, 196609, 5, 0, 196610, 5, 0, 196611, 5, 0, 196612, 5, 0, 196613, 5, 0, 196614, 5, 0, 196615, 5, 0, 196616, 5, 0, 196617, 5, 0, 196618, 5, 0, 196619, 5, 0, 196620, 5, 0, 196621, 5, 0, 196622, 5, 0, 196623, 5, 0, 196624, 5, 0, 196625, 5, 0, 196626, 5, 0, 196627, 5, 0, 196628, 5, 0, 196629, 5, 0, 196630, 5, 0, 196631, 5, 0, 196632, 6, 0, 196633, 5, 0, 196634, 5, 0, 196635, 5, 0, 196636, 5, 0, 196637, 6, 0, 196638, 6, 0, 196639, 6, 0, 196640, 6, 0, 196641, 6, 0, 196642, 6, 0, 196643, 6, 0, 196644, 6, 0, 196645, 6, 0, 196646, 6, 0, 196647, 6, 0, 196648, 6, 0, 327679, 6, 0, 262144, 6, 0, 262145, 5, 0, 262146, 5, 0, 262147, 5, 0, 262148, 5, 0, 262149, 5, 0, 262150, 5, 0, 262151, 5, 0, 262152, 5, 0, 262153, 5, 0, 262154, 5, 0, 262155, 5, 0, 262156, 5, 0, 262157, 5, 0, 262158, 5, 0, 262159, 5, 0, 262160, 5, 0, 262161, 5, 0, 262162, 5, 0, 262163, 5, 0, 262164, 5, 0, 262165, 5, 0, 262166, 5, 0, 262167, 5, 0, 262168, 5, 0, 262169, 5, 0, 262170, 5, 0, 262171, 5, 0, 262172, 5, 0, 262173, 5, 0, 262174, 5, 0, 262175, 6, 0, 262176, 6, 0, 262177, 6, 0, 262178, 6, 0, 262179, 6, 0, 262180, 6, 0, 262181, 6, 0, 262182, 6, 0, 262183, 6, 0, 262184, 6, 0, 393215, 6, 0, 327680, 5, 0, 327681, 5, 0, 327682, 5, 0, 327683, 5, 0, 327684, 5, 0, 327685, 5, 0, 327686, 5, 0, 327687, 5, 0, 327688, 5, 0, 327689, 5, 0, 327690, 5, 0, 327691, 5, 0, 327692, 5, 0, 327693, 5, 0, 327694, 5, 0, 327695, 5, 0, 327696, 5, 0, 327697, 5, 0, 327698, 5, 0, 327699, 5, 0, 327700, 5, 0, 327701, 5, 0, 327702, 5, 0, 327703, 5, 0, 327704, 5, 0, 327705, 5, 0, 327706, 5, 0, 327707, 5, 0, 327708, 5, 0, 327709, 5, 0, 327710, 5, 0, 327711, 5, 0, 327712, 6, 0, 327713, 6, 0, 327714, 6, 0, 327715, 6, 0, 327716, 6, 0, 327717, 6, 0, 327718, 6, 0, 327719, 6, 0, 327720, 6, 0, 458751, 6, 0, 393216, 6, 0, 393217, 5, 0, 393218, 5, 0, 393219, 5, 0, 393220, 5, 0, 393221, 5, 0, 393222, 5, 0, 393223, 5, 0, 393224, 5, 0, 393225, 5, 0, 393226, 5, 0, 393227, 5, 0, 393228, 5, 0, 393229, 5, 0, 393230, 5, 0, 393231, 5, 0, 393232, 5, 0, 393233, 5, 0, 393234, 5, 0, 393235, 5, 0, 393236, 5, 0, 393237, 5, 0, 393238, 5, 0, 393239, 5, 0, 393240, 5, 0, 393241, 5, 0, 393242, 5, 0, 393243, 5, 0, 393244, 5, 0, 393245, 5, 0, 393246, 5, 0, 393247, 6, 0, 393248, 6, 0, 393249, 6, 0, 393250, 6, 0, 393251, 6, 0, 393252, 6, 0, 393253, 6, 0, 393254, 6, 0, 393255, 6, 0, 393256, 6, 0, 524287, 6, 0, 458752, 6, 0, 458753, 6, 0, 458754, 5, 0, 458755, 5, 0, 458756, 5, 0, 458757, 5, 0, 458758, 5, 0, 458759, 5, 0, 458760, 5, 0, 458761, 5, 0, 458762, 5, 0, 458763, 5, 0, 458764, 5, 0, 458765, 5, 0, 458766, 5, 0, 458767, 5, 0, 458768, 5, 0, 458769, 5, 0, 458770, 5, 0, 458771, 5, 0, 458772, 5, 0, 458773, 5, 0, 458774, 5, 0, 458775, 5, 0, 458776, 5, 0, 458777, 5, 0, 458778, 5, 0, 458779, 5, 0, 458780, 5, 0, 458781, 5, 0, 458782, 5, 0, 458783, 5, 0, 458784, 5, 0, 458785, 5, 0, 458786, 6, 0, 458787, 6, 0, 458788, 6, 0, 458789, 6, 0, 458790, 6, 0, 458791, 6, 0, 458792, 6, 0, 589822, 5, 0, 589823, 5, 0, 524288, 5, 0, 524289, 5, 0, 524290, 5, 0, 524291, 5, 0, 524292, 5, 0, 524293, 5, 0, 524294, 5, 0, 524295, 5, 0, 524296, 5, 0, 524297, 5, 0, 524298, 5, 0, 524299, 5, 0, 524300, 5, 0, 524301, 5, 0, 524302, 5, 0, 524303, 5, 0, 524304, 5, 0, 524305, 5, 0, 524306, 5, 0, 524307, 5, 0, 524308, 5, 0, 524309, 5, 0, 524310, 5, 0, 524311, 5, 0, 524312, 5, 0, 524313, 5, 0, 524314, 5, 0, 524315, 5, 0, 524316, 5, 0, 524317, 5, 0, 524318, 5, 0, 524319, 5, 0, 524320, 5, 0, 524321, 5, 0, 524322, 6, 0, 524323, 6, 0, 524324, 6, 0, 524325, 6, 0, 524326, 6, 0, 524327, 6, 0, 524328, 6, 0, 655354, 5, 0, 655355, 5, 0, 655356, 5, 0, 655357, 5, 0, 655358, 5, 0, 655359, 5, 0, 589824, 5, 0, 589825, 5, 0, 589826, 5, 0, 589827, 5, 0, 589828, 5, 0, 589829, 5, 0, 589830, 5, 0, 589831, 5, 0, 589832, 5, 0, 589833, 5, 0, 589834, 5, 0, 589835, 5, 0, 589836, 5, 0, 589837, 5, 0, 589838, 5, 0, 589839, 5, 0, 589840, 5, 0, 589841, 5, 0, 589842, 5, 0, 589843, 5, 0, 589844, 5, 0, 589845, 5, 0, 589846, 5, 0, 589847, 5, 0, 589848, 5, 0, 589849, 5, 0, 589850, 5, 0, 589851, 5, 0, 589852, 5, 0, 589853, 5, 0, 589854, 5, 0, 589855, 5, 0, 589856, 5, 0, 589857, 5, 0, 589858, 6, 0, 589859, 6, 0, 589860, 6, 0, 589861, 6, 0, 589862, 6, 0, 589863, 6, 0, 589864, 6, 0, 720894, 5, 0, 720895, 5, 0, 655360, 5, 0, 655361, 5, 0, 655362, 5, 0, 655363, 5, 0, 655364, 5, 0, 655365, 5, 0, 655366, 5, 0, 655367, 5, 0, 655368, 5, 0, 655369, 5, 0, 655370, 5, 0, 655371, 5, 0, 655372, 5, 0, 655373, 5, 0, 655374, 5, 0, 655375, 5, 0, 655376, 5, 0, 655377, 5, 0, 655378, 5, 0, 655379, 5, 0, 655380, 5, 0, 655381, 5, 0, 655382, 5, 0, 655383, 5, 0, 655384, 5, 0, 655385, 5, 0, 655386, 5, 0, 655387, 5, 0, 655388, 5, 0, 655389, 5, 0, 655390, 5, 0, 655391, 5, 0, 655392, 5, 0, 655393, 5, 0, 655394, 6, 0, 655395, 6, 0, 655396, 6, 0, 655397, 6, 0, 655398, 6, 0, 655399, 6, 0, 655400, 6, 0, 786429, 5, 0, 786430, 5, 0, 786431, 5, 0, 720896, 5, 0, 720897, 5, 0, 720898, 6, 0, 720899, 5, 0, 720900, 5, 0, 720901, 5, 0, 720902, 5, 0, 720903, 5, 0, 720904, 5, 0, 720905, 5, 0, 720906, 5, 0, 720907, 5, 0, 720908, 5, 0, 720909, 5, 0, 720910, 5, 0, 720911, 5, 0, 720912, 5, 0, 720913, 5, 0, 720914, 5, 0, 720915, 5, 0, 720916, 5, 0, 720917, 5, 0, 720918, 5, 0, 720919, 5, 0, 720920, 5, 0, 720921, 5, 0, 720922, 5, 0, 720923, 5, 0, 720924, 5, 0, 720925, 5, 0, 720926, 5, 0, 720927, 5, 0, 720928, 5, 0, 720929, 5, 0, 720930, 5, 0, 720931, 5, 0, 720932, 5, 0, 720933, 6, 0, 720934, 6, 0, 720935, 6, 0, 720936, 6, 0, 851964, 5, 0, 851965, 5, 0, 851966, 5, 0, 851967, 5, 0, 786432, 5, 0, 786433, 5, 0, 786434, 5, 0, 786435, 5, 0, 786436, 5, 0, 786437, 5, 0, 786438, 5, 0, 786439, 5, 0, 786440, 5, 0, 786441, 5, 0, 786442, 5, 0, 786443, 5, 0, 786444, 5, 0, 786445, 5, 0, 786446, 5, 0, 786447, 5, 0, 786448, 5, 0, 786449, 5, 0, 786450, 5, 0, 786451, 5, 0, 786452, 5, 0, 786453, 5, 0, 786454, 5, 0, 786455, 5, 0, 786456, 5, 0, 786457, 5, 0, 786458, 5, 0, 786459, 5, 0, 786460, 5, 0, 786461, 5, 0, 786462, 5, 0, 786463, 5, 0, 786464, 5, 0, 786465, 5, 0, 786466, 5, 0, 786467, 5, 0, 786468, 6, 0, 786469, 6, 0, 786470, 6, 0, 786471, 6, 0, 786472, 6, 0, 917501, 5, 0, 917502, 5, 0, 917503, 5, 0, 851968, 5, 0, 851969, 5, 0, 851970, 5, 0, 851971, 5, 0, 851972, 5, 0, 851973, 5, 0, 851974, 5, 0, 851975, 5, 0, 851976, 5, 0, 851977, 5, 0, 851978, 5, 0, 851979, 5, 0, 851980, 5, 0, 851981, 5, 0, 851982, 5, 0, 851983, 5, 0, 851984, 5, 0, 851985, 5, 0, 851986, 5, 0, 851987, 5, 0, 851988, 5, 0, 851989, 5, 0, 851990, 5, 0, 851991, 5, 0, 851992, 5, 0, 851993, 5, 0, 851994, 5, 0, 851995, 5, 0, 851996, 5, 0, 851997, 5, 0, 851998, 5, 0, 851999, 5, 0, 852000, 5, 0, 852001, 5, 0, 852002, 5, 0, 852003, 5, 0, 852004, 5, 0, 852005, 5, 0, 852006, 5, 0, 852007, 5, 0, 852008, 5, 0, 983039, 5, 0, 917504, 5, 0, 917505, 5, 0, 917506, 5, 0, 917507, 5, 0, 917508, 5, 0, 917509, 5, 0, 917510, 5, 0, 917511, 5, 0, 917512, 5, 0, 917513, 5, 0, 917514, 5, 0, 917515, 5, 0, 917516, 5, 0, 917517, 5, 0, 917518, 5, 0, 917519, 5, 0, 917520, 5, 0, 917521, 5, 0, 917522, 5, 0, 917523, 5, 0, 917524, 5, 0, 917525, 5, 0, 917526, 5, 0, 917527, 5, 0, 917528, 5, 0, 917529, 5, 0, 917530, 5, 0, 917531, 5, 0, 917532, 5, 0, 917533, 5, 0, 917534, 5, 0, 917535, 5, 0, 917536, 5, 0, 917537, 5, 0, 917538, 5, 0, 917539, 5, 0, 917540, 5, 0, 917541, 5, 0, 917542, 5, 0, 917543, 5, 0, 917544, 5, 0, 1048575, 6, 0, 983040, 5, 0, 983041, 5, 0, 983042, 5, 0, 983043, 5, 0, 983044, 5, 0, 983045, 5, 0, 983046, 5, 0, 983047, 5, 0, 983048, 5, 0, 983049, 5, 0, 983050, 5, 0, 983051, 5, 0, 983052, 5, 0, 983053, 5, 0, 983054, 5, 0, 983055, 5, 0, 983056, 5, 0, 983057, 5, 0, 983058, 5, 0, 983059, 5, 0, 983060, 5, 0, 983061, 5, 0, 983062, 5, 0, 983063, 5, 0, 983064, 5, 0, 983065, 5, 0, 983066, 5, 0, 983067, 5, 0, 983068, 5, 0, 983069, 5, 0, 983070, 5, 0, 983071, 5, 0, 983072, 5, 0, 983073, 5, 0, 983074, 5, 0, 983075, 5, 0, 983076, 5, 0, 983077, 5, 0, 983078, 5, 0, 983079, 5, 0, 983080, 5, 0, 1114111, 6, 0, 1048576, 6, 0, 1048577, 6, 0, 1048578, 5, 0, 1048579, 5, 0, 1048580, 5, 0, 1048581, 5, 0, 1048582, 5, 0, 1048583, 5, 0, 1048584, 5, 0, 1048585, 5, 0, 1048586, 5, 0, 1048587, 5, 0, 1048588, 5, 0, 1048589, 5, 0, 1048590, 5, 0, 1048591, 5, 0, 1048592, 5, 0, 1048593, 5, 0, 1048594, 5, 0, 1048595, 5, 0, 1048596, 5, 0, 1048597, 5, 0, 1048598, 5, 0, 1048599, 5, 0, 1048600, 5, 0, 1048601, 5, 0, 1048602, 5, 0, 1048603, 5, 0, 1048604, 5, 0, 1048605, 5, 0, 1048606, 5, 0, 1048607, 5, 0, 1048608, 5, 0, 1048609, 5, 0, 1048610, 5, 0, 1048611, 5, 0, 1048612, 5, 0, 1048613, 5, 0, 1048614, 5, 0, 1048615, 5, 0, 1048616, 5, 0, 1179647, 6, 0, 1114112, 6, 0, 1114113, 6, 0, 1114114, 6, 0, 1114115, 6, 0, 1114116, 6, 0, 1114117, 6, 0, 1114118, 6, 0, 1114119, 6, 0, 1114120, 6, 0, 1114121, 6, 0, 1114122, 6, 0, 1114123, 6, 0, 1114124, 6, 0, 1114125, 6, 0, 1114126, 6, 0, 1114127, 6, 0, 1114128, 6, 0, 1114129, 6, 0, 1114130, 6, 0, 1114131, 6, 0, 1114132, 6, 0, 1114133, 6, 0, 1114134, 6, 0, 1114135, 6, 0, 1114136, 6, 0, 1114137, 6, 0, 1114138, 6, 0, 1114139, 6, 0, 1114140, 6, 0, 1114141, 6, 0, 1114142, 6, 0, 1114143, 6, 0, 1114144, 5, 0, 1114145, 5, 0, 1114146, 5, 0, 1114147, 5, 0, 1114148, 5, 0, 1114149, 5, 0, 1114150, 5, 0, 1114151, 5, 0, 1114152, 5, 0, 1245183, 6, 0, 1179648, 6, 0, 1179649, 6, 0, 1179650, 6, 0, 1179651, 6, 0, 1179652, 6, 0, 1179653, 6, 0, 1179654, 6, 0, 1179655, 6, 0, 1179656, 6, 0, 1179657, 6, 0, 1179658, 6, 0, 1179659, 6, 0, 1179660, 6, 0, 1179661, 6, 0, 1179662, 6, 0, 1179663, 6, 0, 1179664, 6, 0, 1179665, 6, 0, 1179666, 6, 0, 1179667, 6, 0, 1179668, 6, 0, 1179669, 6, 0, 1179670, 6, 0, 1179671, 6, 0, 1179672, 6, 0, 1179673, 6, 0, 1179674, 6, 0, 1179675, 6, 0, 1179676, 6, 0, 1179677, 6, 0, 1179678, 6, 0, 1179679, 6, 0, 1179680, 5, 0, 1179681, 5, 0, 1179682, 5, 0, 1179683, 5, 0, 1179684, 5, 0, 1179685, 5, 0, 1179686, 5, 0, 1179687, 5, 0, 1179688, 5, 0, 1310719, 6, 0, 1245184, 6, 0, 1245185, 6, 0, 1245186, 6, 0, 1245187, 6, 0, 1245188, 6, 0, 1245189, 6, 0, 1245190, 6, 0, 1245191, 6, 0, 1245192, 5, 0, 1245193, 5, 0, 1245194, 5, 0, 1245195, 5, 0, 1245196, 5, 0, 1245197, 5, 0, 1245198, 5, 0, 1245199, 5, 0, 1245200, 5, 0, 1245201, 5, 0, 1245202, 5, 0, 1245203, 5, 0, 1245204, 5, 0, 1245205, 5, 0, 1245206, 5, 0, 1245207, 5, 0, 1245208, 5, 0, 1245209, 5, 0, 1245210, 5, 0, 1245211, 5, 0, 1245212, 5, 0, 1245213, 5, 0, 1245214, 5, 0, 1245215, 5, 0, 1245216, 5, 0, 1245217, 5, 0, 1245218, 5, 0, 1245219, 5, 0, 1245220, 5, 0, 1245221, 5, 0, 1245222, 5, 0, 1245223, 5, 0, 1245224, 5, 0, 1376255, 6, 0, 1310720, 6, 0, 1310721, 6, 0, 1310722, 6, 0, 1310723, 6, 0, 1310724, 6, 0, 1310725, 6, 0, 1310726, 6, 0, 1310727, 6, 0, 1310728, 5, 0, 1310729, 5, 0, 1310730, 5, 0, 1310731, 5, 0, 1310732, 5, 0, 1310733, 5, 0, 1310734, 5, 0, 1310735, 5, 0, 1310736, 5, 0, 1310737, 5, 0, 1310738, 5, 0, 1310739, 5, 0, 1310740, 5, 0, 1310741, 5, 0, 1310742, 5, 0, 1310743, 5, 0, 1310744, 5, 0, 1310745, 5, 0, 1310746, 5, 0, 1310747, 5, 0, 1310748, 5, 0, 1310749, 5, 0, 1310750, 5, 0, 1310751, 5, 0, 1310752, 5, 0, 1310753, 5, 0, 1310754, 5, 0, 1310755, 5, 0, 1310756, 5, 0, 1310757, 5, 0, 1310758, 5, 0, 1310759, 5, 0, 1310760, 5, 0, 1441791, 6, 0, 1376256, 6, 0, 1376257, 6, 0, 1376258, 6, 0, 1376259, 6, 0, 1376260, 6, 0, 1376261, 6, 0, 1376262, 6, 0, 1376263, 6, 0, 1376264, 5, 0, 1376265, 5, 0, 1376266, 5, 0, 1376267, 5, 0, 1376268, 5, 0, 1376269, 5, 0, 1376270, 5, 0, 1376271, 5, 0, 1376272, 5, 0, 1376273, 5, 0, 1376274, 5, 0, 1376275, 5, 0, 1376276, 5, 0, 1376277, 5, 0, 1376278, 5, 0, 1376279, 5, 0, 1376280, 5, 0, 1376281, 5, 0, 1376282, 5, 0, 1376283, 5, 0, 1376284, 5, 0, 1376285, 5, 0, 1376286, 5, 0, 1376287, 5, 0, 1376288, 5, 0, 1376289, 5, 0, 1376290, 5, 0, 1376291, 5, 0, 1376292, 5, 0, 1376293, 5, 0, 1376294, 5, 0, 1376295, 5, 0, 1376296, 5, 0, 1507327, 6, 0, 1441792, 6, 0, 1441793, 6, 0, 1441794, 6, 0, 1441795, 6, 0, 1441796, 6, 0, 1441797, 6, 0, 1441798, 6, 0, 1441799, 6, 0, 1441800, 5, 0, 1441801, 5, 0, 1441802, 5, 0, 1441803, 5, 0, 1441804, 5, 0, 1441805, 5, 0, 1441806, 5, 0, 1441807, 5, 0, 1441808, 5, 0, 1441809, 5, 0, 1441810, 5, 0, 1441811, 5, 0, 1441812, 5, 0, 1441813, 5, 0, 1441814, 5, 0, 1441815, 5, 0, 1441816, 5, 0, 1441817, 5, 0, 1441818, 5, 0, 1441819, 5, 0, 1441820, 5, 0, 1441821, 5, 0, 1441822, 5, 0, 1441823, 5, 0, 1441824, 5, 0, 1441825, 5, 0, 1441826, 5, 0, 1441827, 5, 0, 1441828, 5, 0, 1441829, 5, 0, 1441830, 5, 0, 1441831, 5, 0, 1441832, 5, 0, 1572863, 6, 0, 1507328, 6, 0, 1507329, 6, 0, 1507330, 6, 0, 1507331, 6, 0, 1507332, 6, 0, 1507333, 6, 0, 1507334, 6, 0, 1507335, 6, 0, 1507336, 5, 0, 1507337, 5, 0, 1507338, 5, 0, 1507339, 5, 0, 1507340, 5, 0, 1507341, 5, 0, 1507342, 5, 0, 1507343, 5, 0, 1507344, 5, 0, 1507345, 5, 0, 1507346, 5, 0, 1507347, 5, 0, 1507348, 5, 0, 1507349, 5, 0, 1507350, 5, 0, 1507351, 5, 0, 1507352, 5, 0, 1507353, 5, 0, 1507354, 5, 0, 1507355, 5, 0, 1507356, 5, 0, 1507357, 5, 0, 1507358, 5, 0, 1507359, 5, 0, 1507360, 5, 0, 1507361, 5, 0, 1507362, 5, 0, 1507363, 5, 0, 1507364, 5, 0, 1507365, 5, 0, 1507366, 5, 0, 1507367, 5, 0, 1507368, 5, 0, 1638399, 6, 0, 1572864, 6, 0, 1572865, 6, 0, 1572866, 6, 0, 1572867, 6, 0, 1572868, 6, 0, 1572869, 6, 0, 1572870, 6, 0, 1572871, 6, 0, 1572872, 5, 0, 1572873, 5, 0, 1572874, 5, 0, 1572875, 5, 0, 1572876, 5, 0, 1572877, 5, 0, 1572878, 5, 0, 1572879, 5, 0, 1572880, 5, 0, 1572881, 5, 0, 1572882, 5, 0, 1572883, 5, 0, 1572884, 5, 0, 1572885, 5, 0, 1572886, 5, 0, 1572887, 5, 0, 1572888, 5, 0, 1572889, 5, 0, 1572890, 5, 0, 1572891, 5, 0, 1572892, 5, 0, 1572893, 5, 0, 1572894, 5, 0, 1572895, 5, 0, 1572896, 5, 0, 1572897, 5, 0, 1572898, 5, 0, 1572899, 5, 0, 1572900, 5, 0, 1572901, 5, 0, 1572902, 5, 0, 1572903, 5, 0, 1572904, 5, 0, 1703935, 6, 0, 1638400, 6, 0, 1638401, 6, 0, 1638402, 6, 0, 1638403, 6, 0, 1638404, 6, 0, 1638405, 6, 0, 1638406, 6, 0, 1638407, 6, 0, 1638408, 5, 0, 1638409, 5, 0, 1638410, 5, 0, 1638411, 5, 0, 1638412, 5, 0, 1638413, 5, 0, 1638414, 5, 0, 1638415, 5, 0, 1638416, 5, 0, 1638417, 5, 0, 1638418, 5, 0, 1638419, 5, 0, 1638420, 5, 0, 1638421, 5, 0, 1638422, 5, 0, 1638423, 5, 0, 1638424, 5, 0, 1638425, 5, 0, 1638426, 5, 0, 1638427, 5, 0, 1638428, 5, 0, 1638429, 5, 0, 1638430, 5, 0, 1638431, 5, 0, 1638432, 5, 0, 1638433, 5, 0, 1638434, 5, 0, 1638435, 5, 0, 1638436, 5, 0, 1638437, 5, 0, 1638438, 5, 0, 1638439, 5, 0, 1638440, 5, 0, 1769471, 6, 0, 1703936, 6, 0, 1703937, 6, 0, 1703938, 6, 0, 1703939, 6, 0, 1703940, 6, 0, 1703941, 6, 0, 1703942, 6, 0, 1703943, 6, 0, 1703944, 5, 0, 1703945, 5, 0, 1703946, 5, 0, 1703947, 5, 0, 1703948, 5, 0, 1703949, 5, 0, 1703950, 5, 0, 1703951, 5, 0, 1703952, 5, 0, 1703953, 5, 0, 1703954, 5, 0, 1703955, 5, 0, 1703956, 5, 0, 1703957, 5, 0, 1703958, 5, 0, 1703959, 5, 0, 1703960, 5, 0, 1703961, 5, 0, 1703962, 5, 0, 1703963, 5, 0, 1703964, 5, 0, 1703965, 5, 0, 1703966, 5, 0, 1703967, 5, 0, 1703968, 5, 0, 1703969, 5, 0, 1703970, 5, 0, 1703971, 5, 0, 1703972, 5, 0, 1703973, 5, 0, 1703974, 5, 0, 1703975, 5, 0, 1703976, 5, 0, 1835007, 6, 0, 1769472, 6, 0, 1769473, 6, 0, 1769474, 6, 0, 1769475, 6, 0, 1769476, 6, 0, 1769477, 6, 0, 1769478, 6, 0, 1769479, 6, 0, 1769480, 5, 0, 1769481, 5, 0, 1769482, 5, 0, 1769483, 5, 0, 1769484, 5, 0, 1769485, 5, 0, 1769486, 5, 0, 1769487, 5, 0, 1769488, 5, 0, 1769489, 5, 0, 1769490, 5, 0, 1769491, 5, 0, 1769492, 5, 0, 1769493, 5, 0, 1769494, 5, 0, 1769495, 5, 0, 1769496, 5, 0, 1769497, 5, 0, 1769498, 5, 0, 1769499, 5, 0, 1769500, 5, 0, 1769501, 5, 0, 1769502, 5, 0, 1769503, 5, 0, 1769504, 5, 0, 1769505, 5, 0, 1769506, 5, 0, 1769507, 5, 0, 1769508, 5, 0, 1769509, 5, 0, 1769510, 5, 0, 1769511, 5, 0, 1769512, 5, 0, 1900543, 6, 0, 1835008, 6, 0, 1835009, 6, 0, 1835010, 6, 0, 1835011, 6, 0, 1835012, 6, 0, 1835013, 6, 0, 1835014, 6, 0, 1835015, 6, 0, 1835016, 5, 0, 1835017, 5, 0, 1835018, 5, 0, 1835019, 5, 0, 1835020, 5, 0, 1835021, 5, 0, 1835022, 5, 0, 1835023, 5, 0, 1835024, 5, 0, 1835025, 5, 0, 1835026, 5, 0, 1835027, 5, 0, 1835028, 5, 0, 1835029, 5, 0, 1835030, 5, 0, 1835031, 5, 0, 1835032, 5, 0, 1835033, 5, 0, 1835034, 5, 0, 1835035, 5, 0, 1835036, 5, 0, 1835037, 5, 0, 1835038, 5, 0, 1835039, 5, 0, 1835040, 5, 0, 1835041, 5, 0, 1835042, 5, 0, 1835043, 5, 0, 1835044, 5, 0, 1835045, 5, 0, 1835046, 5, 0, 1835047, 5, 0, 1835048, 5, 0, 1966079, 6, 0, 1900544, 6, 0, 1900545, 6, 0, 1900546, 6, 0, 1900547, 6, 0, 1900548, 6, 0, 1900549, 6, 0, 1900550, 6, 0, 1900551, 6, 0, 1900552, 5, 0, 1900553, 5, 0, 1900554, 5, 0, 1900555, 5, 0, 1900556, 5, 0, 1900557, 5, 0, 1900558, 5, 0, 1900559, 5, 0, 1900560, 5, 0, 1900561, 5, 0, 1900562, 5, 0, 1900563, 5, 0, 1900564, 5, 0, 1900565, 5, 0, 1900566, 5, 0, 1900567, 5, 0, 1900568, 5, 0, 1900569, 5, 0, 1900570, 5, 0, 1900571, 5, 0, 1900572, 5, 0, 1900573, 5, 0, 1900574, 5, 0, 1900575, 5, 0, 1900576, 5, 0, 1900577, 5, 0, 1900578, 5, 0, 1900579, 5, 0, 1900580, 5, 0, 1900581, 5, 0, 1900582, 5, 0, 1900583, 5, 0, 1900584, 5, 0, 2031615, 6, 0, 1966080, 6, 0, 1966081, 6, 0, 1966082, 6, 0, 1966083, 6, 0, 1966084, 6, 0, 1966085, 6, 0, 1966086, 6, 0, 1966087, 6, 0, 1966088, 5, 0, 1966089, 5, 0, 1966090, 5, 0, 1966091, 5, 0, 1966092, 5, 0, 1966093, 5, 0, 1966094, 5, 0, 1966095, 5, 0, 1966096, 5, 0, 1966097, 5, 0, 1966098, 5, 0, 1966099, 5, 0, 1966100, 5, 0, 1966101, 5, 0, 1966102, 5, 0, 1966103, 5, 0, 1966104, 5, 0, 1966105, 5, 0, 1966106, 5, 0, 1966107, 5, 0, 1966108, 5, 0, 1966109, 5, 0, 1966110, 5, 0, 1966111, 5, 0, 1966112, 5, 0, 1966113, 5, 0, 1966114, 5, 0, 1966115, 5, 0, 1966116, 5, 0, 1966117, 5, 0, 1966118, 5, 0, 1966119, 5, 0, 1966120, 5, 0, 2097151, 6, 0, 2031616, 6, 0, 2031617, 6, 0, 2031618, 6, 0, 2031619, 6, 0, 2031620, 6, 0, 2031621, 6, 0, 2031622, 6, 0, 2031623, 6, 0, 2031624, 5, 0, 2031625, 5, 0, 2031626, 5, 0, 2031627, 5, 0, 2031628, 5, 0, 2031629, 5, 0, 2031630, 5, 0, 2031631, 5, 0, 2031632, 5, 0, 2031633, 5, 0, 2031634, 5, 0, 2031635, 5, 0, 2031636, 5, 0, 2031637, 5, 0, 2031638, 5, 0, 2031639, 5, 0, 2031640, 5, 0, 2031641, 5, 0, 2031642, 5, 0, 2031643, 5, 0, 2031644, 5, 0, 2031645, 5, 0, 2031646, 5, 0, 2031647, 5, 0, 2031648, 5, 0, 2031649, 5, 0, 2031650, 5, 0, 2031651, 5, 0, 2031652, 5, 0, 2031653, 5, 0, 2031654, 5, 0, 2031655, 5, 0, 2031656, 5, 0, 2162687, 6, 0, 2097152, 6, 0, 2097153, 6, 0, 2097154, 6, 0, 2097155, 6, 0, 2097156, 6, 0, 2097157, 6, 0, 2097158, 6, 0, 2097159, 6, 0, 2097160, 5, 0, 2097161, 5, 0, 2097162, 5, 0, 2097163, 5, 0, 2097164, 5, 0, 2097165, 5, 0, 2097166, 5, 0, 2097167, 5, 0, 2097168, 5, 0, 2097169, 5, 0, 2097170, 5, 0, 2097171, 5, 0, 2097172, 5, 0, 2097173, 5, 0, 2097174, 5, 0, 2097175, 5, 0, 2097176, 5, 0, 2097177, 5, 0, 2097178, 5, 0, 2097179, 5, 0, 2097180, 5, 0, 2097181, 5, 0, 2097182, 5, 0, 2097183, 5, 0, 2097184, 5, 0, 2097185, 5, 0, 2097186, 5, 0, 2097187, 5, 0, 2097188, 5, 0, 2097189, 5, 0, 2097190, 5, 0, 2097191, 5, 0, 2097192, 5, 0 )

[node name="CanvasModulate" type="CanvasModulate" parent="."]
color = Color( 0, 0, 0, 1 )

[node name="Label" type="Label" parent="."]
anchor_top = 0.5
anchor_right = 1.0
anchor_bottom = 0.5
margin_top = -77.0
margin_bottom = 8.0
custom_fonts/font = SubResource( 1 )
text = "Use Lamp To See In
The Dark"
align = 1

[node name="Light2D" type="Light2D" parent="Label"]
position = Vector2( 263, 25 )
scale = Vector2( 3.53125, 1.39062 )
texture = ExtResource( 3 )

[node name="death" type="AnimatedSprite" parent="."]
position = Vector2( -40, 208 )
scale = Vector2( 2, 2 )
frames = SubResource( 8 )
frame = 2
playing = true

[node name="Light2D2" type="Light2D" parent="death"]
texture = ExtResource( 3 )

[node name="skeleton" type="AnimatedSprite" parent="."]
position = Vector2( 224, 224 )
scale = Vector2( 2, 2 )
frames = SubResource( 17 )
frame = 1
playing = true

[node name="AnimationPlayer" type="AnimationPlayer" parent="."]
autoplay = "default"
anims/RESET = SubResource( 18 )
anims/default = SubResource( 19 )

[node name="collect" type="AnimatedSprite" parent="."]
visible = false
position = Vector2( 384, 224 )
scale = Vector2( 2, 2 )
frames = SubResource( 23 )

[node name="sound" type="AudioStreamPlayer" parent="."]
stream = ExtResource( 6 )

[node name="music" type="AudioStreamPlayer" parent="."]
stream = ExtResource( 7 )
autoplay = true
