[gd_scene load_steps=2 format=2]

[ext_resource path="res://objects/debughud/debug_hud.gd" type="Script" id=1]

[node name="debug_hud" type="Control"]
anchor_right = 1.0
anchor_bottom = 1.0
script = ExtResource( 1 )

[node name="Label" type="Label" parent="."]
anchor_right = 1.0
margin_bottom = 67.0
text = "TEST"
align = 1
