[gd_scene load_steps=8 format=2]

[ext_resource path="res://objects/super_grotto/tilemaps/tilemap.tscn" type="PackedScene" id=1]
[ext_resource path="res://objects/death/player.tscn" type="PackedScene" id=2]
[ext_resource path="res://music/pixel-perfect-112527.ogg" type="AudioStream" id=3]
[ext_resource path="res://objects/super_grotto/enemies/enemy_skell.tscn" type="PackedScene" id=4]
[ext_resource path="res://objects/map_exit/exit_01.tscn" type="PackedScene" id=5]
[ext_resource path="res://objects/debughud/debug_hud.tscn" type="PackedScene" id=6]
[ext_resource path="res://objects/super_grotto/enemies/enemy_skell_fall.tscn" type="PackedScene" id=11]

[node name="Map" type="Node2D"]

[node name="TileMap2" parent="." instance=ExtResource( 1 )]
modulate = Color( 1, 1, 1, 0.32549 )
tile_data = PoolIntArray( 851976, 5, 0, 851977, 5, 0, 851978, 5, 0, 851979, 5, 0, 851980, 5, 0, 851981, 5, 0, 851982, 5, 0, 851983, 5, 0, 851984, 5, 0, 851985, 5, 0, 851986, 5, 0, 851987, 5, 0, 851988, 5, 0, 851989, 5, 0, 851990, 5, 0, 851991, 5, 0, 851992, 5, 0, 851993, 5, 0, 851994, 5, 0, 851995, 5, 0, 851996, 5, 0, 851997, 5, 0, 851998, 5, 0, 851999, 5, 0, 852000, 5, 0, 852001, 5, 0, 852002, 5, 0, 852003, 5, 0, 852004, 5, 0, 852005, 5, 0, 852006, 5, 0, 852007, 5, 0, 852008, 5, 0, 917512, 5, 0, 917513, 5, 0, 917514, 5, 0, 917515, 5, 0, 917516, 5, 0, 917517, 5, 0, 917518, 5, 0, 917519, 5, 0, 917520, 5, 0, 917521, 5, 0, 917522, 5, 0, 917523, 5, 0, 917524, 5, 0, 917525, 5, 0, 917526, 5, 0, 917527, 5, 0, 917528, 5, 0, 917529, 5, 0, 917530, 5, 0, 917531, 5, 0, 917532, 5, 0, 917533, 5, 0, 917534, 5, 0, 917535, 5, 0, 917536, 5, 0, 917537, 5, 0, 917538, 5, 0, 917539, 5, 0, 917540, 5, 0, 917541, 5, 0, 917542, 5, 0, 917543, 5, 0, 917544, 5, 0, 983048, 5, 0, 983049, 5, 0, 983050, 5, 0, 983051, 5, 0, 983052, 5, 0, 983053, 5, 0, 983054, 5, 0, 983055, 5, 0, 983056, 5, 0, 983057, 5, 0, 983058, 5, 0, 983059, 5, 0, 983060, 5, 0, 983061, 5, 0, 983062, 5, 0, 983063, 5, 0, 983064, 5, 0, 983065, 5, 0, 983066, 5, 0, 983067, 5, 0, 983068, 5, 0, 983069, 5, 0, 983070, 5, 0, 983071, 5, 0, 983072, 5, 0, 983073, 5, 0, 983074, 5, 0, 983075, 5, 0, 983076, 5, 0, 983077, 5, 0, 983078, 5, 0, 983079, 5, 0, 983080, 5, 0, 1048584, 5, 0, 1048585, 5, 0, 1048586, 5, 0, 1048587, 5, 0, 1048588, 5, 0, 1048589, 5, 0, 1048590, 5, 0, 1048591, 5, 0, 1048592, 5, 0, 1048593, 5, 0, 1048594, 5, 0, 1048595, 5, 0, 1048596, 5, 0, 1048597, 5, 0, 1048598, 5, 0, 1048599, 5, 0, 1048600, 5, 0, 1048601, 5, 0, 1048602, 5, 0, 1048603, 5, 0, 1048604, 5, 0, 1048605, 5, 0, 1048606, 5, 0, 1048607, 5, 0, 1048608, 5, 0, 1048609, 5, 0, 1048610, 5, 0, 1048611, 5, 0, 1048612, 5, 0, 1048613, 5, 0, 1048614, 5, 0, 1048615, 5, 0, 1048616, 5, 0, 1114120, 5, 0, 1114121, 5, 0, 1114122, 5, 0, 1114123, 5, 0, 1114124, 5, 0, 1114125, 5, 0, 1114126, 5, 0, 1114127, 5, 0, 1114128, 5, 0, 1114129, 5, 0, 1114130, 5, 0, 1114131, 5, 0, 1114132, 5, 0, 1114133, 5, 0, 1114134, 5, 0, 1114135, 5, 0, 1114136, 5, 0, 1114137, 5, 0, 1114138, 5, 0, 1114139, 5, 0, 1114140, 5, 0, 1114141, 5, 0, 1114142, 5, 0, 1114143, 5, 0, 1114144, 5, 0, 1114145, 5, 0, 1114146, 5, 0, 1114147, 5, 0, 1114148, 5, 0, 1114149, 5, 0, 1114150, 5, 0, 1114151, 5, 0, 1114152, 5, 0, 1179656, 5, 0, 1179657, 5, 0, 1179658, 5, 0, 1179659, 5, 0, 1179660, 5, 0, 1179661, 5, 0, 1179662, 5, 0, 1179663, 5, 0, 1179664, 5, 0, 1179665, 5, 0, 1179666, 5, 0, 1179667, 5, 0, 1179668, 5, 0, 1179669, 5, 0, 1179670, 5, 0, 1179671, 5, 0, 1179672, 5, 0, 1179673, 5, 0, 1179674, 5, 0, 1179675, 5, 0, 1179676, 5, 0, 1179677, 5, 0, 1179678, 5, 0, 1179679, 5, 0, 1179680, 5, 0, 1179681, 5, 0, 1179682, 5, 0, 1179683, 5, 0, 1179684, 5, 0, 1179685, 5, 0, 1179686, 5, 0, 1179687, 5, 0, 1179688, 5, 0, 1245192, 5, 0, 1245193, 5, 0, 1245194, 5, 0, 1245195, 5, 0, 1245196, 5, 0, 1245197, 5, 0, 1245198, 5, 0, 1245199, 5, 0, 1245200, 5, 0, 1245201, 5, 0, 1245202, 5, 0, 1245203, 5, 0, 1245204, 5, 0, 1245205, 5, 0, 1245206, 5, 0, 1245207, 5, 0, 1245208, 5, 0, 1245209, 5, 0, 1245210, 5, 0, 1245211, 5, 0, 1245212, 5, 0, 1245213, 5, 0, 1245214, 5, 0, 1245215, 5, 0, 1245216, 5, 0, 1245217, 5, 0, 1245218, 5, 0, 1245219, 5, 0, 1245220, 5, 0, 1245221, 5, 0, 1245222, 5, 0, 1245223, 5, 0, 1245224, 5, 0, 1310728, 5, 0, 1310729, 5, 0, 1310730, 5, 0, 1310731, 5, 0, 1310732, 5, 0, 1310733, 5, 0, 1310734, 5, 0, 1310735, 5, 0, 1310736, 5, 0, 1310737, 5, 0, 1310738, 5, 0, 1310739, 5, 0, 1310740, 5, 0, 1310741, 5, 0, 1310742, 5, 0, 1310743, 5, 0, 1310744, 5, 0, 1310745, 5, 0, 1310746, 5, 0, 1310747, 5, 0, 1310748, 5, 0, 1310749, 5, 0, 1310750, 5, 0, 1310751, 5, 0, 1310752, 5, 0, 1310753, 5, 0, 1310754, 5, 0, 1310755, 5, 0, 1310756, 5, 0, 1310757, 5, 0, 1310758, 5, 0, 1310759, 5, 0, 1310760, 5, 0, 1376264, 5, 0, 1376265, 5, 0, 1376266, 5, 0, 1376267, 5, 0, 1376268, 5, 0, 1376269, 5, 0, 1376270, 5, 0, 1376271, 5, 0, 1376272, 5, 0, 1376273, 5, 0, 1376274, 5, 0, 1376275, 5, 0, 1376276, 5, 0, 1376277, 5, 0, 1376278, 5, 0, 1376279, 5, 0, 1376280, 5, 0, 1376281, 5, 0, 1376282, 5, 0, 1376283, 5, 0, 1376284, 5, 0, 1376285, 5, 0, 1376286, 5, 0, 1376287, 5, 0, 1376288, 5, 0, 1376289, 5, 0, 1376290, 5, 0, 1376291, 5, 0, 1376292, 5, 0, 1376293, 5, 0, 1376294, 5, 0, 1376295, 5, 0, 1376296, 5, 0, 1441800, 5, 0, 1441801, 5, 0, 1441802, 5, 0, 1441803, 5, 0, 1441804, 5, 0, 1441805, 5, 0, 1441806, 5, 0, 1441807, 5, 0, 1441808, 5, 0, 1441809, 5, 0, 1441810, 5, 0, 1441811, 5, 0, 1441812, 5, 0, 1441813, 5, 0, 1441814, 5, 0, 1441815, 5, 0, 1441816, 5, 0, 1441817, 5, 0, 1441818, 5, 0, 1441819, 5, 0, 1441820, 5, 0, 1441821, 5, 0, 1441822, 5, 0, 1441823, 5, 0, 1441824, 5, 0, 1441825, 5, 0, 1441826, 5, 0, 1441827, 5, 0, 1441828, 5, 0, 1441829, 5, 0, 1441830, 5, 0, 1441831, 5, 0, 1441832, 5, 0, 1507336, 5, 0, 1507337, 5, 0, 1507338, 5, 0, 1507339, 5, 0, 1507340, 5, 0, 1507341, 5, 0, 1507342, 5, 0, 1507343, 5, 0, 1507344, 5, 0, 1507345, 5, 0, 1507346, 5, 0, 1507347, 5, 0, 1507348, 5, 0, 1507349, 5, 0, 1507350, 5, 0, 1507351, 5, 0, 1507352, 5, 0, 1507353, 5, 0, 1507354, 5, 0, 1507355, 5, 0, 1507356, 5, 0, 1507357, 5, 0, 1507358, 5, 0, 1507359, 5, 0, 1507360, 5, 0, 1507361, 5, 0, 1507362, 5, 0, 1507363, 5, 0, 1507364, 5, 0, 1507365, 5, 0, 1507366, 5, 0, 1507367, 5, 0, 1507368, 5, 0, 1572872, 5, 0, 1572873, 5, 0, 1572874, 5, 0, 1572875, 5, 0, 1572876, 5, 0, 1572877, 5, 0, 1572878, 5, 0, 1572879, 5, 0, 1572880, 5, 0, 1572881, 5, 0, 1572882, 5, 0, 1572883, 5, 0, 1572884, 5, 0, 1572885, 5, 0, 1572886, 5, 0, 1572887, 5, 0, 1572888, 5, 0, 1572889, 5, 0, 1572890, 5, 0, 1572891, 5, 0, 1572892, 5, 0, 1572893, 5, 0, 1572894, 5, 0, 1572895, 5, 0, 1572896, 5, 0, 1572897, 5, 0, 1572898, 5, 0, 1572899, 5, 0, 1572900, 5, 0, 1572901, 5, 0, 1572902, 5, 0, 1572903, 5, 0, 1572904, 5, 0, 1638408, 5, 0, 1638409, 5, 0, 1638410, 5, 0, 1638411, 5, 0, 1638412, 5, 0, 1638413, 5, 0, 1638414, 5, 0, 1638415, 5, 0, 1638416, 5, 0, 1638417, 5, 0, 1638418, 5, 0, 1638419, 5, 0, 1638420, 5, 0, 1638421, 5, 0, 1638422, 5, 0, 1638423, 5, 0, 1638424, 5, 0, 1638425, 5, 0, 1638426, 5, 0, 1638427, 5, 0, 1638428, 5, 0, 1638429, 5, 0, 1638430, 5, 0, 1638431, 5, 0, 1638432, 5, 0, 1638433, 5, 0, 1638434, 5, 0, 1638435, 5, 0, 1638436, 5, 0, 1638437, 5, 0, 1638438, 5, 0, 1638439, 5, 0, 1638440, 5, 0, 1703944, 5, 0, 1703945, 5, 0, 1703946, 5, 0, 1703947, 5, 0, 1703948, 5, 0, 1703949, 5, 0, 1703950, 5, 0, 1703951, 5, 0, 1703952, 5, 0, 1703953, 5, 0, 1703954, 5, 0, 1703955, 5, 0, 1703956, 5, 0, 1703957, 5, 0, 1703958, 5, 0, 1703959, 5, 0, 1703960, 5, 0, 1703961, 5, 0, 1703962, 5, 0, 1703963, 5, 0, 1703964, 5, 0, 1703965, 5, 0, 1703966, 5, 0, 1703967, 5, 0, 1703968, 5, 0, 1703969, 5, 0, 1703970, 5, 0, 1703971, 5, 0, 1703972, 5, 0, 1703973, 5, 0, 1703974, 5, 0, 1703975, 5, 0, 1703976, 5, 0, 1769480, 5, 0, 1769481, 5, 0, 1769482, 5, 0, 1769483, 5, 0, 1769484, 5, 0, 1769485, 5, 0, 1769486, 5, 0, 1769487, 5, 0, 1769488, 5, 0, 1769489, 5, 0, 1769490, 5, 0, 1769491, 5, 0, 1769492, 5, 0, 1769493, 5, 0, 1769494, 5, 0, 1769495, 5, 0, 1769496, 5, 0, 1769497, 5, 0, 1769498, 5, 0, 1769499, 5, 0, 1769500, 5, 0, 1769501, 5, 0, 1769502, 5, 0, 1769503, 5, 0, 1769504, 5, 0, 1769505, 5, 0, 1769506, 5, 0, 1769507, 5, 0, 1769508, 5, 0, 1769509, 5, 0, 1769510, 5, 0, 1769511, 5, 0, 1769512, 5, 0, 1835016, 5, 0, 1835017, 5, 0, 1835018, 5, 0, 1835019, 5, 0, 1835020, 5, 0, 1835021, 5, 0, 1835022, 5, 0, 1835023, 5, 0, 1835024, 5, 0, 1835025, 5, 0, 1835026, 5, 0, 1835027, 5, 0, 1835028, 5, 0, 1835029, 5, 0, 1835030, 5, 0, 1835031, 5, 0, 1835032, 5, 0, 1835033, 5, 0, 1835034, 5, 0, 1835035, 5, 0, 1835036, 5, 0, 1835037, 5, 0, 1835038, 5, 0, 1835039, 5, 0, 1835040, 5, 0, 1835041, 5, 0, 1835042, 5, 0, 1835043, 5, 0, 1835044, 5, 0, 1835045, 5, 0, 1835046, 5, 0, 1835047, 5, 0, 1835048, 5, 0, 1900552, 5, 0, 1900553, 5, 0, 1900554, 5, 0, 1900555, 5, 0, 1900556, 5, 0, 1900557, 5, 0, 1900558, 5, 0, 1900559, 5, 0, 1900560, 5, 0, 1900561, 5, 0, 1900562, 5, 0, 1900563, 5, 0, 1900564, 5, 0, 1900565, 5, 0, 1900566, 5, 0, 1900567, 5, 0, 1900568, 5, 0, 1900569, 5, 0, 1900570, 5, 0, 1900571, 5, 0, 1900572, 5, 0, 1900573, 5, 0, 1900574, 5, 0, 1900575, 5, 0, 1900576, 5, 0, 1900577, 5, 0, 1900578, 5, 0, 1900579, 5, 0, 1900580, 5, 0, 1900581, 5, 0, 1900582, 5, 0, 1900583, 5, 0, 1900584, 5, 0, 1966088, 5, 0, 1966089, 5, 0, 1966090, 5, 0, 1966091, 5, 0, 1966092, 5, 0, 1966093, 5, 0, 1966094, 5, 0, 1966095, 5, 0, 1966096, 5, 0, 1966097, 5, 0, 1966098, 5, 0, 1966099, 5, 0, 1966100, 5, 0, 1966101, 5, 0, 1966102, 5, 0, 1966103, 5, 0, 1966104, 5, 0, 1966105, 5, 0, 1966106, 5, 0, 1966107, 5, 0, 1966108, 5, 0, 1966109, 5, 0, 1966110, 5, 0, 1966111, 5, 0, 1966112, 5, 0, 1966113, 5, 0, 1966114, 5, 0, 1966115, 5, 0, 1966116, 5, 0, 1966117, 5, 0, 1966118, 5, 0, 1966119, 5, 0, 1966120, 5, 0, 2031624, 5, 0, 2031625, 5, 0, 2031626, 5, 0, 2031627, 5, 0, 2031628, 5, 0, 2031629, 5, 0, 2031630, 5, 0, 2031631, 5, 0, 2031632, 5, 0, 2031633, 5, 0, 2031634, 5, 0, 2031635, 5, 0, 2031636, 5, 0, 2031637, 5, 0, 2031638, 5, 0, 2031639, 5, 0, 2031640, 5, 0, 2031641, 5, 0, 2031642, 5, 0, 2031643, 5, 0, 2031644, 5, 0, 2031645, 5, 0, 2031646, 5, 0, 2031647, 5, 0, 2031648, 5, 0, 2031649, 5, 0, 2031650, 5, 0, 2031651, 5, 0, 2031652, 5, 0, 2031653, 5, 0, 2031654, 5, 0, 2031655, 5, 0, 2031656, 5, 0, 2097160, 5, 0, 2097161, 5, 0, 2097162, 5, 0, 2097163, 5, 0, 2097164, 5, 0, 2097165, 5, 0, 2097166, 5, 0, 2097167, 5, 0, 2097168, 5, 0, 2097169, 5, 0, 2097170, 5, 0, 2097171, 5, 0, 2097172, 5, 0, 2097173, 5, 0, 2097174, 5, 0, 2097175, 5, 0, 2097176, 5, 0, 2097177, 5, 0, 2097178, 5, 0, 2097179, 5, 0, 2097180, 5, 0, 2097181, 5, 0, 2097182, 5, 0, 2097183, 5, 0, 2097184, 5, 0, 2097185, 5, 0, 2097186, 5, 0, 2097187, 5, 0, 2097188, 5, 0, 2097189, 5, 0, 2097190, 5, 0, 2097191, 5, 0, 2097192, 5, 0 )

[node name="TileMap" parent="." instance=ExtResource( 1 )]
tile_data = PoolIntArray( 851976, 1, 0, 851977, 1, 0, 851978, 1, 0, 851979, 1, 0, 851980, 1, 0, 851981, 1, 0, 851982, 1, 0, 851983, 1, 0, 851984, 1, 0, 851985, 1, 0, 851986, 1, 0, 851987, 1, 0, 851988, 1, 0, 851989, 1, 0, 851990, 1, 0, 851991, 1, 0, 851992, 1, 0, 851993, 1, 0, 851994, 1, 0, 851995, 1, 0, 851996, 1, 0, 851997, 1, 0, 851998, 1, 0, 851999, 1, 0, 852000, 1, 0, 852001, 1, 0, 852002, 1, 0, 852003, 1, 0, 852004, 1, 0, 852005, 1, 0, 852006, 1, 0, 852007, 1, 0, 852008, 1, 0, 917512, 1, 0, 917544, 1, 0, 983048, 1, 0, 983080, 1, 0, 1048584, 1, 0, 1048616, 1, 0, 1114120, 1, 0, 1114152, 1, 0, 1179656, 1, 0, 1179688, 1, 0, 1245192, 1, 0, 1245224, 1, 0, 1310728, 1, 0, 1310760, 1, 0, 1376264, 1, 0, 1376296, 1, 0, 1441800, 1, 0, 1441832, 1, 0, 1507336, 1, 0, 1507342, 2, 0, 1507368, 1, 0, 1572872, 1, 0, 1572878, 2, 0, 1572879, 2, 0, 1572904, 1, 0, 1638408, 1, 0, 1638409, 2, 0, 1638414, 2, 0, 1638415, 2, 0, 1638416, 2, 0, 1638440, 1, 0, 1703944, 1, 0, 1703945, 2, 0, 1703950, 2, 0, 1703951, 2, 0, 1703952, 2, 0, 1703953, 2, 0, 1703976, 1, 0, 1769480, 1, 0, 1769481, 2, 0, 1769482, 2, 0, 1769483, 2, 0, 1769484, 2, 0, 1769485, 2, 0, 1769486, 2, 0, 1769487, 2, 0, 1769488, 2, 0, 1769489, 2, 0, 1769490, 2, 0, 1769512, 1, 0, 1835016, 1, 0, 1835048, 1, 0, 1900552, 1, 0, 1900565, 2, 0, 1900566, 2, 0, 1900567, 2, 0, 1900568, 2, 0, 1900569, 2, 0, 1900570, 2, 0, 1900584, 1, 0, 1966088, 1, 0, 1966101, 2, 0, 1966102, 2, 0, 1966103, 2, 0, 1966104, 2, 0, 1966105, 2, 0, 1966106, 2, 0, 1966107, 2, 0, 1966120, 1, 0, 2031624, 1, 0, 2031625, 1, 0, 2031626, 1, 0, 2031627, 1, 0, 2031628, 1, 0, 2031629, 1, 0, 2031630, 1, 0, 2031631, 1, 0, 2031632, 1, 0, 2031633, 1, 0, 2031634, 1, 0, 2031635, 1, 0, 2031636, 1, 0, 2031637, 1, 0, 2031638, 1, 0, 2031639, 1, 0, 2031640, 1, 0, 2031641, 1, 0, 2031642, 1, 0, 2031643, 1, 0, 2031644, 1, 0, 2031645, 1, 0, 2031646, 1, 0, 2031647, 1, 0, 2031648, 1, 0, 2031649, 1, 0, 2031650, 1, 0, 2031651, 1, 0, 2031652, 1, 0, 2031653, 1, 0, 2031654, 1, 0, 2031655, 1, 0, 2031656, 1, 0 )

[node name="exit" parent="TileMap" instance=ExtResource( 5 )]
position = Vector2( 601, 464 )
next_scene = "res://maps/map_02.tscn"

[node name="enemy_skell3" parent="TileMap" instance=ExtResource( 11 )]
position = Vector2( 229, 330 )

[node name="enemy_skell" parent="TileMap" instance=ExtResource( 4 )]
position = Vector2( 192, 383 )

[node name="enemy_skell2" parent="TileMap" instance=ExtResource( 4 )]
position = Vector2( 505, 464 )

[node name="player" parent="TileMap" instance=ExtResource( 2 )]
position = Vector2( 218, 460 )

[node name="Camera2D" type="Camera2D" parent="."]
position = Vector2( 396, 362 )
scale = Vector2( 2, 2 )
current = true
smoothing_enabled = true

[node name="debug_hud" parent="Camera2D" instance=ExtResource( 6 )]
visible = false
margin_left = -127.0
margin_top = -74.0
margin_right = 121.0
margin_bottom = 72.0

[node name="music" type="AudioStreamPlayer" parent="." groups=["music"]]
stream = ExtResource( 3 )
volume_db = -5.0
autoplay = true
