[gd_scene load_steps=24 format=2]

[ext_resource path="res://objects/super_grotto/tilemaps/tileset-2_red.png" type="Texture" id=1]
[ext_resource path="res://objects/death/player.tscn" type="PackedScene" id=2]
[ext_resource path="res://music/epic-battle-153400.ogg" type="AudioStream" id=3]
[ext_resource path="res://objects/super_grotto/enemies/enemy_fly-eye-demon.tscn" type="PackedScene" id=4]
[ext_resource path="res://objects/map_exit/exit_01.tscn" type="PackedScene" id=5]
[ext_resource path="res://objects/debughud/debug_hud.tscn" type="PackedScene" id=6]
[ext_resource path="res://objects/super_grotto/tilemaps/tileset-2.png" type="Texture" id=7]
[ext_resource path="res://objects/teleporters/landing_pad.tscn" type="PackedScene" id=8]
[ext_resource path="res://objects/super_grotto/tilemaps/tileset-2_green.png" type="Texture" id=9]
[ext_resource path="res://objects/teleporters/Teleporter.tscn" type="PackedScene" id=10]
[ext_resource path="res://objects/super_grotto/enemies/enemy_skell_fall.tscn" type="PackedScene" id=11]
[ext_resource path="res://objects/skeleton_creatore/creator.tscn" type="PackedScene" id=12]
[ext_resource path="res://objects/ogre/Ogre_Smash.tscn" type="PackedScene" id=13]

[sub_resource type="TileSet" id=4]
0/name = "tileset-2_green.png 0"
0/texture = ExtResource( 9 )
0/tex_offset = Vector2( 0, 0 )
0/modulate = Color( 1, 1, 1, 1 )
0/region = Rect2( 160, 32, 32, 32 )
0/tile_mode = 0
0/occluder_offset = Vector2( 0, 0 )
0/navigation_offset = Vector2( 0, 0 )
0/shape_offset = Vector2( 0, 0 )
0/shape_transform = Transform2D( 1, 0, 0, 1, 0, 0 )
0/shape_one_way = false
0/shape_one_way_margin = 0.0
0/shapes = [  ]
0/z_index = 0
1/name = "tileset-2_green.png 1"
1/texture = ExtResource( 9 )
1/tex_offset = Vector2( 0, 0 )
1/modulate = Color( 1, 1, 1, 1 )
1/region = Rect2( 16, 16, 32, 64 )
1/tile_mode = 0
1/occluder_offset = Vector2( 0, 0 )
1/navigation_offset = Vector2( 0, 0 )
1/shape_offset = Vector2( 0, 0 )
1/shape_transform = Transform2D( 1, 0, 0, 1, 0, 0 )
1/shape_one_way = false
1/shape_one_way_margin = 0.0
1/shapes = [  ]
1/z_index = 0
2/name = "tileset-2_green.png 2"
2/texture = ExtResource( 9 )
2/tex_offset = Vector2( 0, 0 )
2/modulate = Color( 1, 1, 1, 1 )
2/region = Rect2( 48, 32, 32, 32 )
2/tile_mode = 0
2/occluder_offset = Vector2( 0, 0 )
2/navigation_offset = Vector2( 0, 0 )
2/shape_offset = Vector2( 0, 0 )
2/shape_transform = Transform2D( 1, 0, 0, 1, 0, 0 )
2/shape_one_way = false
2/shape_one_way_margin = 0.0
2/shapes = [  ]
2/z_index = 0
3/name = "tileset-2_red.png 3"
3/texture = ExtResource( 1 )
3/tex_offset = Vector2( 0, 0 )
3/modulate = Color( 1, 1, 1, 1 )
3/region = Rect2( 160, 32, 32, 32 )
3/tile_mode = 0
3/occluder_offset = Vector2( 0, 0 )
3/navigation_offset = Vector2( 0, 0 )
3/shape_offset = Vector2( 0, 0 )
3/shape_transform = Transform2D( 1, 0, 0, 1, 0, 0 )
3/shape_one_way = false
3/shape_one_way_margin = 0.0
3/shapes = [  ]
3/z_index = 0
4/name = "tileset-2_red.png 4"
4/texture = ExtResource( 1 )
4/tex_offset = Vector2( 0, 0 )
4/modulate = Color( 1, 1, 1, 1 )
4/region = Rect2( 16, 32, 16, 32 )
4/tile_mode = 0
4/occluder_offset = Vector2( 0, 0 )
4/navigation_offset = Vector2( 0, 0 )
4/shape_offset = Vector2( 0, 0 )
4/shape_transform = Transform2D( 1, 0, 0, 1, 0, 0 )
4/shape_one_way = false
4/shape_one_way_margin = 0.0
4/shapes = [  ]
4/z_index = 0

[sub_resource type="ConvexPolygonShape2D" id=10]
points = PoolVector2Array( 18, 18, 0, 18, 0, 0, 18, 0 )

[sub_resource type="TileSet" id=11]
0/name = "tileset-2.png 0"
0/texture = ExtResource( 7 )
0/tex_offset = Vector2( 0, 0 )
0/modulate = Color( 1, 1, 1, 1 )
0/region = Rect2( 108, 0, 18, 18 )
0/tile_mode = 0
0/occluder_offset = Vector2( 0, 0 )
0/navigation_offset = Vector2( 0, 0 )
0/shape_offset = Vector2( 0, 0 )
0/shape_transform = Transform2D( 1, 0, 0, 1, 0, 0 )
0/shape = SubResource( 10 )
0/shape_one_way = false
0/shape_one_way_margin = 1.0
0/shapes = [ {
"autotile_coord": Vector2( 0, 0 ),
"one_way": false,
"one_way_margin": 1.0,
"shape": SubResource( 10 ),
"shape_transform": Transform2D( 1, 0, 0, 1, 0, 0 )
} ]
0/z_index = 0

[sub_resource type="ConvexPolygonShape2D" id=1]
points = PoolVector2Array( 32, 16, 0, 16, 0, 0, 32, 0 )

[sub_resource type="ConvexPolygonShape2D" id=3]
points = PoolVector2Array( 16, 16, 0, 16, 0, 0, 16, 0 )

[sub_resource type="ConvexPolygonShape2D" id=5]
points = PoolVector2Array( 32, 32, 0, 32, 0, 0, 32, 0 )

[sub_resource type="ConvexPolygonShape2D" id=6]
points = PoolVector2Array( 16, 16, 0, 16, 0, 0, 16, 0 )

[sub_resource type="ConvexPolygonShape2D" id=8]
points = PoolVector2Array( 12, 12, 0, 12, 0, 0, 12, 0 )

[sub_resource type="ConvexPolygonShape2D" id=9]
points = PoolVector2Array( 18, 18, 0, 18, 0, 0, 18, 0 )

[sub_resource type="TileSet" id=7]
0/name = "tileset-2_green.png 0"
0/texture = ExtResource( 9 )
0/tex_offset = Vector2( 0, 0 )
0/modulate = Color( 1, 1, 1, 1 )
0/region = Rect2( 16, 128, 32, 16 )
0/tile_mode = 0
0/occluder_offset = Vector2( 0, 0 )
0/navigation_offset = Vector2( 0, 0 )
0/shape_offset = Vector2( 0, 0 )
0/shape_transform = Transform2D( 1, 0, 0, 1, 0, 0 )
0/shape = SubResource( 1 )
0/shape_one_way = false
0/shape_one_way_margin = 1.0
0/shapes = [ {
"autotile_coord": Vector2( 0, 0 ),
"one_way": false,
"one_way_margin": 1.0,
"shape": SubResource( 1 ),
"shape_transform": Transform2D( 1, 0, 0, 1, 0, 0 )
} ]
0/z_index = 0
1/name = "tileset-2_green.png 1"
1/texture = ExtResource( 9 )
1/tex_offset = Vector2( 0, 0 )
1/modulate = Color( 1, 1, 1, 1 )
1/region = Rect2( 176, 80, 16, 16 )
1/tile_mode = 0
1/occluder_offset = Vector2( 0, 0 )
1/navigation_offset = Vector2( 0, 0 )
1/shape_offset = Vector2( 0, 0 )
1/shape_transform = Transform2D( 1, 0, 0, 1, 0, 0 )
1/shape = SubResource( 3 )
1/shape_one_way = false
1/shape_one_way_margin = 1.0
1/shapes = [ {
"autotile_coord": Vector2( 0, 0 ),
"one_way": false,
"one_way_margin": 1.0,
"shape": SubResource( 3 ),
"shape_transform": Transform2D( 1, 0, 0, 1, 0, 0 )
} ]
1/z_index = 0
2/name = "tileset-2_red.png 2"
2/texture = ExtResource( 1 )
2/tex_offset = Vector2( 0, 0 )
2/modulate = Color( 1, 1, 1, 1 )
2/region = Rect2( 32, 32, 32, 32 )
2/tile_mode = 0
2/occluder_offset = Vector2( 0, 0 )
2/navigation_offset = Vector2( 0, 0 )
2/shape_offset = Vector2( 0, 0 )
2/shape_transform = Transform2D( 1, 0, 0, 1, 0, 0 )
2/shape_one_way = false
2/shape_one_way_margin = 0.0
2/shapes = [  ]
2/z_index = 0
3/name = "tileset-2_red.png 3"
3/texture = ExtResource( 1 )
3/tex_offset = Vector2( 0, 0 )
3/modulate = Color( 1, 1, 1, 1 )
3/region = Rect2( 32, 128, 32, 32 )
3/tile_mode = 0
3/occluder_offset = Vector2( 0, 0 )
3/navigation_offset = Vector2( 0, 0 )
3/shape_offset = Vector2( 0, 0 )
3/shape_transform = Transform2D( 1, 0, 0, 1, 0, 0 )
3/shape = SubResource( 5 )
3/shape_one_way = false
3/shape_one_way_margin = 1.0
3/shapes = [ {
"autotile_coord": Vector2( 0, 0 ),
"one_way": false,
"one_way_margin": 1.0,
"shape": SubResource( 5 ),
"shape_transform": Transform2D( 1, 0, 0, 1, 0, 0 )
} ]
3/z_index = 0
4/name = "tileset-2_red.png 4"
4/texture = ExtResource( 1 )
4/tex_offset = Vector2( 0, 0 )
4/modulate = Color( 1, 1, 1, 1 )
4/region = Rect2( 96, 128, 16, 16 )
4/tile_mode = 0
4/occluder_offset = Vector2( 0, 0 )
4/navigation_offset = Vector2( 0, 0 )
4/shape_offset = Vector2( 0, 0 )
4/shape_transform = Transform2D( 1, 0, 0, 1, 0, 0 )
4/shape = SubResource( 6 )
4/shape_one_way = false
4/shape_one_way_margin = 1.0
4/shapes = [ {
"autotile_coord": Vector2( 0, 0 ),
"one_way": false,
"one_way_margin": 1.0,
"shape": SubResource( 6 ),
"shape_transform": Transform2D( 1, 0, 0, 1, 0, 0 )
} ]
4/z_index = 0
5/name = "tileset-2_red.png 5"
5/texture = ExtResource( 1 )
5/tex_offset = Vector2( 0, 0 )
5/modulate = Color( 1, 1, 1, 1 )
5/region = Rect2( 180, 84, 12, 12 )
5/tile_mode = 0
5/occluder_offset = Vector2( 0, 0 )
5/navigation_offset = Vector2( 0, 0 )
5/shape_offset = Vector2( 0, 0 )
5/shape_transform = Transform2D( 1, 0, 0, 1, 0, 0 )
5/shape = SubResource( 8 )
5/shape_one_way = false
5/shape_one_way_margin = 1.0
5/shapes = [ {
"autotile_coord": Vector2( 0, 0 ),
"one_way": false,
"one_way_margin": 1.0,
"shape": SubResource( 8 ),
"shape_transform": Transform2D( 1, 0, 0, 1, 0, 0 )
} ]
5/z_index = 0
6/name = "tileset-2_red.png 6"
6/texture = ExtResource( 1 )
6/tex_offset = Vector2( 0, 0 )
6/modulate = Color( 1, 1, 1, 1 )
6/region = Rect2( 18, 126, 18, 18 )
6/tile_mode = 0
6/occluder_offset = Vector2( 0, 0 )
6/navigation_offset = Vector2( 0, 0 )
6/shape_offset = Vector2( 0, 0 )
6/shape_transform = Transform2D( 1, 0, 0, 1, 0, 0 )
6/shape = SubResource( 9 )
6/shape_one_way = false
6/shape_one_way_margin = 1.0
6/shapes = [ {
"autotile_coord": Vector2( 0, 0 ),
"one_way": false,
"one_way_margin": 1.0,
"shape": SubResource( 9 ),
"shape_transform": Transform2D( 1, 0, 0, 1, 0, 0 )
} ]
6/z_index = 0

[node name="Map" type="Node2D"]

[node name="TileMap2" type="TileMap" parent="."]
modulate = Color( 1, 1, 1, 0.32549 )
tile_set = SubResource( 4 )
cell_size = Vector2( 32, 32 )
format = 1
tile_data = PoolIntArray( 393220, 4, 0, 393221, -1073741820, 0, 393222, -1073741820, 0, 393223, -1073741820, 0, 393224, -1073741820, 0, 393225, -1073741820, 0, 393226, -1073741820, 0, 393227, -1073741820, 0, 393228, -1073741820, 0, 393229, -1073741820, 0, 393230, -1073741820, 0, 393231, -1073741820, 0, 393232, -1073741820, 0, 393233, -1073741820, 0, 393234, -1073741820, 0, 393235, -1073741820, 0, 393236, 1610612740, 0, 458756, 4, 0, 458757, -1610612733, 0, 458758, -1610612733, 0, 458759, -1610612733, 0, 458760, -1610612733, 0, 458761, -1610612733, 0, 458762, -1610612733, 0, 458763, -1610612733, 0, 458764, -1610612733, 0, 458765, -1610612733, 0, 458766, -1610612733, 0, 458767, -1610612733, 0, 458768, -1610612733, 0, 458769, -1610612733, 0, 458770, -1610612733, 0, 458771, -1610612733, 0, 458772, 1610612740, 0, 524292, 4, 0, 524293, -1610612733, 0, 524294, -1610612733, 0, 524295, -1610612733, 0, 524296, -1610612733, 0, 524297, -1610612733, 0, 524298, -1610612733, 0, 524299, -1610612733, 0, 524300, -1610612733, 0, 524301, -1610612733, 0, 524302, -1610612733, 0, 524303, -1610612733, 0, 524304, -1610612733, 0, 524305, -1610612733, 0, 524306, -1610612733, 0, 524307, -1610612733, 0, 524308, 1610612740, 0, 589828, 4, 0, 589829, -1610612733, 0, 589830, -1610612733, 0, 589831, -1610612733, 0, 589832, -1610612733, 0, 589833, -1610612733, 0, 589834, -1610612733, 0, 589835, -1610612733, 0, 589836, -1610612733, 0, 589837, -1610612733, 0, 589838, -1610612733, 0, 589839, -1610612733, 0, 589840, -1610612733, 0, 589841, -1610612733, 0, 589842, -1610612733, 0, 589843, -1610612733, 0, 589844, 1610612740, 0, 655364, 4, 0, 655365, -1610612733, 0, 655366, -1610612733, 0, 655367, -1610612733, 0, 655368, -1610612733, 0, 655369, -1610612733, 0, 655370, -1610612733, 0, 655371, -1610612733, 0, 655372, -1610612733, 0, 655373, -1610612733, 0, 655374, -1610612733, 0, 655375, -1610612733, 0, 655376, -1610612733, 0, 655377, -1610612733, 0, 655378, -1610612733, 0, 655379, -1610612733, 0, 655380, 1610612740, 0, 720900, 4, 0, 720901, -1610612733, 0, 720902, -1610612733, 0, 720903, -1610612733, 0, 720904, -1610612733, 0, 720905, -1610612733, 0, 720906, -1610612733, 0, 720907, -1610612733, 0, 720908, -1610612733, 0, 720909, -1610612733, 0, 720910, -1610612733, 0, 720911, -1610612733, 0, 720912, -1610612733, 0, 720913, -1610612733, 0, 720914, -1610612733, 0, 720915, -1610612733, 0, 720916, 1610612740, 0, 786436, 4, 0, 786437, -1610612733, 0, 786438, -1610612733, 0, 786439, -1610612733, 0, 786440, -1610612733, 0, 786441, -1610612733, 0, 786442, -1610612733, 0, 786443, -1610612733, 0, 786444, -1610612733, 0, 786445, -1610612733, 0, 786446, -1610612733, 0, 786447, -1610612733, 0, 786448, -1610612733, 0, 786449, -1610612733, 0, 786450, -1610612733, 0, 786451, -1610612733, 0, 786452, 1610612740, 0, 851972, 4, 0, 851973, -1610612733, 0, 851974, -1610612733, 0, 851975, -1610612733, 0, 851976, -1610612733, 0, 851977, -1610612733, 0, 851978, -1610612733, 0, 851979, -1610612733, 0, 851980, -1610612733, 0, 851981, -1610612733, 0, 851982, -1610612733, 0, 851983, -1610612733, 0, 851984, -1610612733, 0, 851985, -1610612733, 0, 851986, -1610612733, 0, 851987, -1610612733, 0, 851988, 1610612740, 0, 917508, 4, 0, 917509, -1610612733, 0, 917510, -1610612733, 0, 917511, -1610612733, 0, 917512, -1610612733, 0, 917513, -1610612733, 0, 917514, -1610612733, 0, 917515, -1610612733, 0, 917516, -1610612733, 0, 917517, -1610612733, 0, 917518, -1610612733, 0, 917519, -1610612733, 0, 917520, -1610612733, 0, 917521, -1610612733, 0, 917522, -1610612733, 0, 917523, -1610612733, 0, 917524, 1610612740, 0, 983044, 4, 0, 983045, -1610612733, 0, 983046, -1610612733, 0, 983047, -1610612733, 0, 983048, -1610612733, 0, 983049, -1610612733, 0, 983050, -1610612733, 0, 983051, -1610612733, 0, 983052, -1610612733, 0, 983053, -1610612733, 0, 983054, -1610612733, 0, 983055, -1610612733, 0, 983056, -1610612733, 0, 983057, -1610612733, 0, 983058, -1610612733, 0, 983059, -1610612733, 0, 983060, 1610612740, 0, 1048580, -1610612732, 0, 1048581, -1610612732, 0, 1048582, -1610612732, 0, 1048583, -1610612732, 0, 1048584, -1610612732, 0, 1048585, -1610612732, 0, 1048586, -1610612732, 0, 1048587, -1610612732, 0, 1048588, -1610612732, 0, 1048589, -1610612732, 0, 1048590, -1610612732, 0, 1048591, -1610612732, 0, 1048592, -1610612732, 0, 1048593, -1610612732, 0, 1048594, -1610612732, 0, 1048595, -1610612732, 0, 1048596, -1610612732, 0 )

[node name="hidden_blocks" type="TileMap" parent="."]
tile_set = SubResource( 11 )
cell_size = Vector2( 16, 16 )
collision_layer = 4
collision_mask = 0
format = 1
tile_data = PoolIntArray( 1179659, 0, 0, 1179661, 0, 0, 1179663, 0, 0, 1179680, 0, 0, 1179682, 0, 0, 1179684, 0, 0, 1179686, 0, 0, 1441804, 0, 0, 1441815, 0, 0, 1441825, 0, 0, 1441829, 0, 0, 1703953, 0, 0, 1703973, 0, 0 )

[node name="TileMap" type="TileMap" parent="."]
scale = Vector2( 1.00395, 0.997867 )
tile_set = SubResource( 7 )
cell_size = Vector2( 16, 16 )
cell_custom_transform = Transform2D( 16, 0, 0, 16, 0, 0 )
format = 1
tile_data = PoolIntArray( 327711, 3, 0, 327712, 3, 0, 327714, 3, 0, 327715, 3, 0, 393224, 3, 0, 393226, 3, 0, 393227, 3, 0, 393228, 3, 0, 393229, 3, 0, 393247, 3, 0, 393248, 3, 0, 393249, 3, 0, 393250, 3, 0, 393251, 3, 0, 393252, 3, 0, 393253, 3, 0, 393254, 3, 0, 458760, 3, 0, 458783, 3, 0, 458790, 3, 0, 524296, 3, 0, 524301, 3, 0, 524319, 3, 0, 524325, 3, 0, 524326, 3, 0, 589832, 3, 0, 589837, 3, 0, 589855, 3, 0, 589862, 3, 0, 655368, 3, 0, 655373, 3, 0, 655391, 3, 0, 655397, 3, 0, 655398, 3, 0, 786440, 3, 0, 786445, 3, 0, 786446, 3, 0, 786447, 3, 0, 786448, 3, 0, 786449, 3, 0, 786450, 3, 0, 786451, 3, 0, 786452, 3, 0, 786453, 3, 0, 786454, 3, 0, 786455, 3, 0, 786456, 3, 0, 786457, 3, 0, 786458, 3, 0, 786459, 3, 0, 786460, 3, 0, 786461, 3, 0, 786462, 3, 0, 786463, 3, 0, 786469, 3, 0, 786470, 3, 0, 786471, 3, 0, 786472, 3, 0, 917512, 3, 0, 917535, 4, 0, 917544, 3, 0, 983048, 3, 0, 983071, 4, 0, 983080, 3, 0, 1048584, 3, 0, 1048607, 4, 0, 1048616, 3, 0, 1114120, 3, 0, 1114143, 4, 0, 1114152, 3, 0, 1179656, 3, 0, 1179658, 4, 0, 1179660, 4, 0, 1179662, 4, 0, 1179664, 4, 0, 1179679, 4, 0, 1179681, 4, 0, 1179683, 4, 0, 1179685, 4, 0, 1179687, 4, 0, 1179688, 3, 0, 1245192, 3, 0, 1245224, 3, 0, 1310728, 3, 0, 1310760, 3, 0, 1376264, 3, 0, 1376296, 3, 0, 1441800, 3, 0, 1441802, 4, 0, 1441803, 4, 0, 1441805, 4, 0, 1441806, 4, 0, 1441807, 4, 0, 1441808, 4, 0, 1441809, 4, 0, 1441810, 4, 0, 1441811, 4, 0, 1441812, 4, 0, 1441813, 4, 0, 1441814, 4, 0, 1441816, 4, 0, 1441817, 4, 0, 1441818, 4, 0, 1441819, 4, 0, 1441820, 4, 0, 1441821, 4, 0, 1441822, 4, 0, 1441823, 4, 0, 1441824, 4, 0, 1441826, 4, 0, 1441827, 4, 0, 1441828, 4, 0, 1441830, 4, 0, 1441831, 4, 0, 1441832, 3, 0, 1507336, 3, 0, 1507368, 3, 0, 1572872, 3, 0, 1572904, 3, 0, 1638408, 3, 0, 1638440, 3, 0, 1703944, 3, 0, 1703946, 4, 0, 1703947, 4, 0, 1703948, 4, 0, 1703949, 4, 0, 1703950, 4, 0, 1703951, 4, 0, 1703952, 4, 0, 1703954, 4, 0, 1703955, 4, 0, 1703956, 4, 0, 1703957, 4, 0, 1703958, 4, 0, 1703959, 4, 0, 1703960, 4, 0, 1703961, 4, 0, 1703962, 4, 0, 1703963, 4, 0, 1703964, 4, 0, 1703965, 4, 0, 1703966, 4, 0, 1703967, 4, 0, 1703968, 4, 0, 1703969, 4, 0, 1703970, 4, 0, 1703971, 4, 0, 1703972, 4, 0, 1703974, 4, 0, 1703975, 4, 0, 1703976, 3, 0, 1769480, 3, 0, 1769512, 3, 0, 1835016, 3, 0, 1835048, 3, 0, 1900552, 3, 0, 1900584, 3, 0, 1966088, 3, 0, 1966120, 3, 0, 2031624, 3, 0, 2031626, 3, 0, 2031627, 3, 0, 2031628, 3, 0, 2031630, 3, 0, 2031632, 3, 0, 2031633, 3, 0, 2031634, 3, 0, 2031635, 3, 0, 2031636, 3, 0, 2031637, 3, 0, 2031638, 3, 0, 2031639, 3, 0, 2031640, 3, 0, 2031641, 3, 0, 2031642, 3, 0, 2031643, 3, 0, 2031644, 3, 0, 2031645, 3, 0, 2031646, 3, 0, 2031647, 3, 0, 2031648, 3, 0, 2031649, 3, 0, 2031650, 3, 0, 2031651, 3, 0, 2031652, 3, 0, 2031653, 3, 0, 2031654, 3, 0, 2031656, 3, 0 )

[node name="exit" parent="TileMap" instance=ExtResource( 5 )]
position = Vector2( 425.32, 319.682 )
next_scene = "res://maps/map_19.tscn"

[node name="player" parent="TileMap" instance=ExtResource( 2 )]
position = Vector2( 310.772, 325.695 )

[node name="Teleporter" parent="TileMap" instance=ExtResource( 10 )]
position = Vector2( 92, 260 )
scale = Vector2( 0.1, 1 )

[node name="Teleporter2" parent="TileMap" instance=ExtResource( 10 )]
position = Vector2( 687, 483 )
scale = Vector2( 0.1, 1 )
collision_layer = 2
id = 1

[node name="landing_pad" parent="TileMap" instance=ExtResource( 8 )]
position = Vector2( 657, 475 )

[node name="landing_pad2" parent="TileMap" instance=ExtResource( 8 )]
position = Vector2( 128, 259 )
id = 1

[node name="Orge_Smash" parent="TileMap" instance=ExtResource( 13 )]
position = Vector2( 617, 257 )

[node name="Orge_Smash2" parent="TileMap" instance=ExtResource( 13 )]
position = Vector2( 252.005, 257.549 )

[node name="enemy_skell_fall" parent="TileMap" instance=ExtResource( 11 )]
position = Vector2( 198.217, 267.571 )

[node name="enemy_fly-eye" parent="TileMap" instance=ExtResource( 4 )]
position = Vector2( 221.127, 391.836 )

[node name="enemy_fly-eye3" parent="TileMap" instance=ExtResource( 4 )]
position = Vector2( 359.58, 462.988 )

[node name="enemy_fly-eye2" parent="TileMap" instance=ExtResource( 4 )]
position = Vector2( 391.454, 245.524 )

[node name="creator" parent="TileMap" instance=ExtResource( 12 )]
position = Vector2( 184.272, 201.43 )

[node name="creator2" parent="TileMap" instance=ExtResource( 12 )]
position = Vector2( 558.793, 214.457 )

[node name="Camera2D" type="Camera2D" parent="."]
position = Vector2( 396, 362 )
scale = Vector2( 2, 2 )
current = true
smoothing_enabled = true

[node name="debug_hud" parent="Camera2D" instance=ExtResource( 6 )]
visible = false
margin_left = -127.0
margin_top = -74.0
margin_right = 121.0
margin_bottom = 72.0

[node name="music" type="AudioStreamPlayer" parent="." groups=["music"]]
stream = ExtResource( 3 )
volume_db = -5.0
autoplay = true
