[gd_scene load_steps=17 format=2]

[ext_resource path="res://objects/super_grotto/enemies/enemy_fly-eye.tscn" type="PackedScene" id=1]
[ext_resource path="res://objects/death/player.tscn" type="PackedScene" id=2]
[ext_resource path="res://music/item-obtained-123644.ogg" type="AudioStream" id=3]
[ext_resource path="res://objects/super_grotto/enemies/enemy_skell.tscn" type="PackedScene" id=4]
[ext_resource path="res://objects/map_exit/exit_01.tscn" type="PackedScene" id=5]
[ext_resource path="res://objects/debughud/debug_hud.tscn" type="PackedScene" id=6]
[ext_resource path="res://objects/ogre/Ogre.tscn" type="PackedScene" id=7]
[ext_resource path="res://objects/teleporters/landing_pad.tscn" type="PackedScene" id=8]
[ext_resource path="res://objects/super_grotto/tilemaps/tileset-2_green.png" type="Texture" id=9]
[ext_resource path="res://objects/teleporters/Teleporter.tscn" type="PackedScene" id=10]
[ext_resource path="res://objects/super_grotto/enemies/enemy_skell_fall.tscn" type="PackedScene" id=11]
[ext_resource path="res://objects/enemy_blocker/enemy_blocker.tscn" type="PackedScene" id=12]

[sub_resource type="TileSet" id=4]
0/name = "tileset-2_green.png 0"
0/texture = ExtResource( 9 )
0/tex_offset = Vector2( 0, 0 )
0/modulate = Color( 1, 1, 1, 1 )
0/region = Rect2( 160, 32, 32, 32 )
0/tile_mode = 0
0/occluder_offset = Vector2( 0, 0 )
0/navigation_offset = Vector2( 0, 0 )
0/shape_offset = Vector2( 0, 0 )
0/shape_transform = Transform2D( 1, 0, 0, 1, 0, 0 )
0/shape_one_way = false
0/shape_one_way_margin = 0.0
0/shapes = [  ]
0/z_index = 0
1/name = "tileset-2_green.png 1"
1/texture = ExtResource( 9 )
1/tex_offset = Vector2( 0, 0 )
1/modulate = Color( 1, 1, 1, 1 )
1/region = Rect2( 16, 16, 32, 64 )
1/tile_mode = 0
1/occluder_offset = Vector2( 0, 0 )
1/navigation_offset = Vector2( 0, 0 )
1/shape_offset = Vector2( 0, 0 )
1/shape_transform = Transform2D( 1, 0, 0, 1, 0, 0 )
1/shape_one_way = false
1/shape_one_way_margin = 0.0
1/shapes = [  ]
1/z_index = 0
2/name = "tileset-2_green.png 2"
2/texture = ExtResource( 9 )
2/tex_offset = Vector2( 0, 0 )
2/modulate = Color( 1, 1, 1, 1 )
2/region = Rect2( 48, 32, 32, 32 )
2/tile_mode = 0
2/occluder_offset = Vector2( 0, 0 )
2/navigation_offset = Vector2( 0, 0 )
2/shape_offset = Vector2( 0, 0 )
2/shape_transform = Transform2D( 1, 0, 0, 1, 0, 0 )
2/shape_one_way = false
2/shape_one_way_margin = 0.0
2/shapes = [  ]
2/z_index = 0

[sub_resource type="ConvexPolygonShape2D" id=1]
points = PoolVector2Array( 32, 16, 0, 16, 0, 0, 32, 0 )

[sub_resource type="ConvexPolygonShape2D" id=3]
points = PoolVector2Array( 16, 16, 0, 16, 0, 0, 16, 0 )

[sub_resource type="TileSet" id=2]
0/name = "tileset-2_green.png 0"
0/texture = ExtResource( 9 )
0/tex_offset = Vector2( 0, 0 )
0/modulate = Color( 1, 1, 1, 1 )
0/region = Rect2( 16, 128, 32, 16 )
0/tile_mode = 0
0/occluder_offset = Vector2( 0, 0 )
0/navigation_offset = Vector2( 0, 0 )
0/shape_offset = Vector2( 0, 0 )
0/shape_transform = Transform2D( 1, 0, 0, 1, 0, 0 )
0/shape = SubResource( 1 )
0/shape_one_way = false
0/shape_one_way_margin = 1.0
0/shapes = [ {
"autotile_coord": Vector2( 0, 0 ),
"one_way": false,
"one_way_margin": 1.0,
"shape": SubResource( 1 ),
"shape_transform": Transform2D( 1, 0, 0, 1, 0, 0 )
} ]
0/z_index = 0
1/name = "tileset-2_green.png 1"
1/texture = ExtResource( 9 )
1/tex_offset = Vector2( 0, 0 )
1/modulate = Color( 1, 1, 1, 1 )
1/region = Rect2( 176, 80, 16, 16 )
1/tile_mode = 0
1/occluder_offset = Vector2( 0, 0 )
1/navigation_offset = Vector2( 0, 0 )
1/shape_offset = Vector2( 0, 0 )
1/shape_transform = Transform2D( 1, 0, 0, 1, 0, 0 )
1/shape = SubResource( 3 )
1/shape_one_way = false
1/shape_one_way_margin = 1.0
1/shapes = [ {
"autotile_coord": Vector2( 0, 0 ),
"one_way": false,
"one_way_margin": 1.0,
"shape": SubResource( 3 ),
"shape_transform": Transform2D( 1, 0, 0, 1, 0, 0 )
} ]
1/z_index = 0

[node name="Map" type="Node2D"]

[node name="TileMap2" type="TileMap" parent="."]
modulate = Color( 1, 1, 1, 0.32549 )
tile_set = SubResource( 4 )
cell_size = Vector2( 32, 32 )
format = 1
tile_data = PoolIntArray( 458757, -1610612735, 0, 458758, -1073741822, 0, 458759, -1073741822, 0, 458760, -1073741822, 0, 458761, -1073741822, 0, 458762, -1073741822, 0, 458763, -1073741822, 0, 458764, -1073741822, 0, 458765, -1073741822, 0, 458766, -1073741822, 0, 458767, -1073741822, 0, 458768, -1073741822, 0, 458769, -1073741822, 0, 458770, -1073741822, 0, 458771, 1610612737, 0, 524293, 1610612738, 0, 524294, -1073741824, 0, 524295, -1073741824, 0, 524296, -1073741824, 0, 524297, -1073741824, 0, 524298, -1073741824, 0, 524299, -1073741824, 0, 524300, -1073741824, 0, 524301, -1073741824, 0, 524302, -1073741824, 0, 524303, -1073741824, 0, 524304, -1073741824, 0, 524305, -1073741824, 0, 524306, -1073741824, 0, 589829, 1610612738, 0, 589830, -1073741824, 0, 589831, -1073741824, 0, 589832, -1073741824, 0, 589833, -1073741824, 0, 589834, -1073741824, 0, 589835, -1073741824, 0, 589836, -1073741824, 0, 589837, -1073741824, 0, 589838, -1073741824, 0, 589839, -1073741824, 0, 589840, -1073741824, 0, 589841, -1073741824, 0, 589842, -1073741824, 0, 589843, 2, 0, 655365, 1610612738, 0, 655366, -1073741824, 0, 655367, -1073741824, 0, 655368, -1073741824, 0, 655369, -1073741824, 0, 655370, -1073741824, 0, 655371, -1073741824, 0, 655372, -1073741824, 0, 655373, -1073741824, 0, 655374, -1073741824, 0, 655375, -1073741824, 0, 655376, -1073741824, 0, 655377, 0, 0, 655378, -1073741824, 0, 655379, 2, 0, 720901, 1610612738, 0, 720902, -1073741824, 0, 720903, -1073741824, 0, 720904, -1073741824, 0, 720905, -1073741824, 0, 720906, -1073741824, 0, 720907, -1073741824, 0, 720908, -1073741824, 0, 720909, -1073741824, 0, 720910, -1073741824, 0, 720911, -1073741824, 0, 720912, -1073741824, 0, 720913, 0, 0, 720914, 0, 0, 720915, 2, 0, 786437, 1610612738, 0, 786438, -1073741824, 0, 786439, -1073741824, 0, 786440, -1073741824, 0, 786441, -1073741824, 0, 786442, -1073741824, 0, 786443, -1073741824, 0, 786444, -1073741824, 0, 786445, -1073741824, 0, 786446, -1073741824, 0, 786447, -1073741824, 0, 786448, -1073741824, 0, 786449, -1073741824, 0, 786450, -1073741824, 0, 786451, 2, 0, 851973, 1610612738, 0, 851974, -1073741824, 0, 851975, -1073741824, 0, 851976, -1073741824, 0, 851977, -1073741824, 0, 851978, -1073741824, 0, 851979, -1073741824, 0, 851980, -1073741824, 0, 851981, -1073741824, 0, 851982, -1073741824, 0, 851983, -1073741824, 0, 851984, -1073741824, 0, 851985, -1073741824, 0, 851986, -1073741824, 0, 851987, 2, 0, 917509, 1, 0, 917510, 0, 0, 917511, 0, 0, 917512, 0, 0, 917513, 0, 0, 917514, 0, 0, 917515, 0, 0, 917516, 0, 0, 917517, 0, 0, 917518, 0, 0, 917519, 0, 0, 917520, 0, 0, 917521, -1073741824, 0, 917522, -1073741824, 0, 917523, -1073741824, 0, 983045, -1610612734, 0, 983046, -1610612734, 0, 983047, -1610612734, 0, 983048, -1610612734, 0, 983049, -1610612734, 0, 983050, -1610612734, 0, 983051, -1610612734, 0, 983052, -1610612734, 0, 983053, -1610612734, 0, 983054, -1610612734, 0, 983055, -1610612734, 0, 983056, -1610612734, 0, 983057, 0, 0, 983058, -1073741823, 0, 983059, -1073741824, 0 )

[node name="TileMap" type="TileMap" parent="."]
tile_set = SubResource( 2 )
cell_size = Vector2( 16, 16 )
cell_custom_transform = Transform2D( 16, 0, 0, 16, 0, 0 )
format = 1
tile_data = PoolIntArray( 589856, 1610612736, 0, 589857, 1610612736, 0, 589858, 1610612736, 0, 589859, 1610612736, 0, 589860, 1610612736, 0, 589861, 1610612736, 0, 589862, 1610612736, 0, 655392, 1610612736, 0, 655398, 1610612736, 0, 720928, 1610612736, 0, 720934, 1610612736, 0, 786464, 1610612736, 0, 786470, 1610612736, 0, 851977, -1610612736, 0, 851978, 1610612736, 0, 851980, 1610612736, 0, 851982, 1610612736, 0, 851984, 1610612736, 0, 851986, 1610612736, 0, 851988, 1610612736, 0, 851990, 1610612736, 0, 851992, 1610612736, 0, 851994, 1610612736, 0, 851996, 1610612736, 0, 851998, 1610612736, 0, 852000, 1610612736, 0, 852006, 1610612736, 0, 852008, -1073741824, 0, 917513, -1610612736, 0, 983049, -1610612736, 0, 983080, -1073741824, 0, 1114121, -1610612736, 0, 1114152, -1073741824, 0, 1179658, 0, 0, 1179659, 0, 0, 1179660, 0, 0, 1179662, 0, 0, 1179664, 0, 0, 1179666, 0, 0, 1179668, 0, 0, 1179678, 0, 0, 1179680, 0, 0, 1179682, 0, 0, 1179684, 0, 0, 1179686, 0, 0, 1245193, -1610612736, 0, 1245204, 1610612736, 0, 1245206, 1610612736, 0, 1245224, -1073741824, 0, 1310742, 1610612736, 0, 1376265, -1610612736, 0, 1376278, 1610612736, 0, 1376280, 1610612736, 0, 1376296, -1073741824, 0, 1441815, 1610612736, 0, 1441817, 0, 0, 1441832, -1073741824, 0, 1507337, -1610612736, 0, 1507354, 0, 0, 1507355, 1610612736, 0, 1507357, 1610612736, 0, 1572904, -1073741824, 0, 1638409, -1610612736, 0, 1638419, 1610612736, 0, 1638420, 1610612736, 0, 1638421, 1610612736, 0, 1638422, 1610612736, 0, 1703976, -1073741824, 0, 1769481, -1610612736, 0, 1769483, 0, 0, 1769485, 0, 0, 1835022, 0, 0, 1835024, 0, 0, 1835026, 0, 0, 1835048, -1073741824, 0, 1900553, -1610612736, 0, 1900584, -1073741824, 0, 2031625, 0, 0, 2031627, 0, 0, 2031629, 0, 0, 2031631, 0, 0, 2031633, 0, 0, 2031635, 0, 0, 2031637, 0, 0, 2031639, 0, 0, 2031641, 0, 0, 2031643, 0, 0, 2031645, 0, 0, 2031647, 0, 0, 2031649, 0, 0, 2031655, 0, 0 )

[node name="exit" parent="TileMap" instance=ExtResource( 5 )]
position = Vector2( 198, 257 )
next_scene = "res://maps/map_14.tscn"

[node name="enemy_skell3" parent="TileMap" instance=ExtResource( 11 )]
position = Vector2( 238, 316 )

[node name="enemy_skell8" parent="TileMap" instance=ExtResource( 11 )]
position = Vector2( 472, 455 )

[node name="enemy_skell11" parent="TileMap" instance=ExtResource( 11 )]
position = Vector2( 507, 469 )

[node name="enemy_skell12" parent="TileMap" instance=ExtResource( 11 )]
position = Vector2( 534, 470 )

[node name="enemy_skell13" parent="TileMap" instance=ExtResource( 11 )]
position = Vector2( 330, 259 )

[node name="enemy_skell6" parent="TileMap" instance=ExtResource( 11 )]
position = Vector2( 188, 309 )

[node name="enemy_skell7" parent="TileMap" instance=ExtResource( 11 )]
position = Vector2( 387, 270 )

[node name="enemy_skell9" parent="TileMap" instance=ExtResource( 11 )]
position = Vector2( 595, 258 )

[node name="enemy_skell" parent="TileMap" instance=ExtResource( 4 )]
position = Vector2( 194, 407 )

[node name="enemy_skell2" parent="TileMap" instance=ExtResource( 4 )]
position = Vector2( 513, 388 )

[node name="enemy_skell4" parent="TileMap" instance=ExtResource( 4 )]
position = Vector2( 272, 265 )

[node name="enemy_skell10" parent="TileMap" instance=ExtResource( 4 )]
position = Vector2( 320, 351 )

[node name="enemy_skell5" parent="TileMap" instance=ExtResource( 4 )]
position = Vector2( 192, 241 )

[node name="Ogre" parent="TileMap" instance=ExtResource( 7 )]
position = Vector2( 546, 245 )
direction = -1
can_fall = true
sprite_flip = true

[node name="enemy_fly-eye" parent="TileMap" instance=ExtResource( 1 )]
position = Vector2( 425, 408 )

[node name="enemy_fly-eye2" parent="TileMap" instance=ExtResource( 1 )]
position = Vector2( 295, 242 )

[node name="player" parent="TileMap" instance=ExtResource( 2 )]
position = Vector2( 183, 475 )

[node name="Teleporter" parent="TileMap" instance=ExtResource( 10 )]
position = Vector2( 595, 540 )
scale = Vector2( 5, 1 )

[node name="landing_pad" parent="TileMap" instance=ExtResource( 8 )]
position = Vector2( 576, 205 )

[node name="enemy_blocker" parent="TileMap" instance=ExtResource( 12 )]
position = Vector2( 309, 481 )

[node name="Camera2D" type="Camera2D" parent="."]
position = Vector2( 396, 362 )
scale = Vector2( 2, 2 )
current = true
smoothing_enabled = true

[node name="debug_hud" parent="Camera2D" instance=ExtResource( 6 )]
visible = false
margin_left = -127.0
margin_top = -74.0
margin_right = 121.0
margin_bottom = 72.0

[node name="music" type="AudioStreamPlayer" parent="." groups=["music"]]
stream = ExtResource( 3 )
volume_db = -5.0
autoplay = true
